name~Telugu~Marathi~Punjabi~Hindi~Tamil~Bengali~action~drama~adventure~romantic~animation~comedy~musical~thriller~biography~fatasy~horror~mystery
the-avengers~0~0~0~0~0~0~1~0~0~0~0~0~0~0~0~0~0~0
avengers-age-of-ultron-3d~0~0~0~0~0~0~0~0~0~0~0~0~0~0~0~0~0~0
avengers-infinity-war~0~0~0~0~0~0~0~0~0~0~0~0~0~0~0~0~0~0
aladdin-imax-3d~0~0~0~0~0~0~1~1~1~0~0~0~1~0~0~0~0~0
avengers-endgame-3d-4dx~0~0~0~0~0~0~1~0~1~0~0~0~0~0~0~0~0~0
x-men-dark-phoenix~0~0~0~0~0~0~1~0~1~0~0~0~0~0~0~0~0~0
godzilla-2d~0~0~0~0~0~0~1~0~1~0~0~0~0~0~0~0~0~0
kanchana-tamil~0~0~0~0~0~0~0~1~0~0~0~0~0~0~0~0~0~0
kanchana-2~0~0~0~0~0~0~0~1~0~0~0~1~0~0~0~0~1~0
kanchana-3~0~0~0~0~0~0~0~0~0~0~0~1~0~0~0~0~1~0
godzilla-2-king-of-the-monsters~0~0~0~0~0~0~1~0~1~0~0~0~0~0~0~0~0~0
99-kannada~0~0~0~0~0~0~0~1~0~0~0~0~0~0~0~0~0~0
bharat~0~0~0~0~0~0~1~1~0~0~0~0~0~0~0~0~0~0
ngk~0~0~0~0~0~0~1~1~0~0~0~0~0~1~0~0~0~0
amar~0~0~0~0~0~0~1~0~0~1~0~0~0~0~0~0~0~0
latest kannada movies 2019~0~0~0~0~0~0~0~0~0~0~0~0~0~0~0~0~0~0
john-wick-2~0~0~0~0~0~0~1~0~0~0~0~0~0~1~0~0~0~0
john-wick~0~0~0~0~0~0~1~0~0~0~0~0~0~1~0~0~0~0
falaknuma-das~0~0~0~0~0~0~1~0~0~1~0~0~0~1~0~0~0~0
de-de-pyaar-de~0~0~0~0~0~0~0~0~0~1~0~1~0~0~0~0~0~0
john-wick-chapter-3-parabellum~0~0~0~0~0~0~1~0~0~0~0~0~0~1~0~0~0~0
latest english movies 2019~0~0~0~0~0~0~0~0~0~0~0~0~0~0~0~0~0~0
pm-narendra-modi~0~0~0~0~0~0~0~1~0~0~0~0~0~0~1~0~0~0
latest tamil movies 2019~0~0~0~0~0~0~0~0~0~0~0~0~0~0~0~0~0~0
latest telugu movies 2019~0~0~0~0~0~0~0~0~0~0~0~0~0~0~0~0~0~0
latest hindi movies 2019~0~0~0~0~0~0~0~0~0~0~0~0~0~0~0~0~0~0
santhu-straight-forward~0~0~0~0~0~0~1~1~0~1~0~0~0~0~0~0~0~0
kali~0~0~0~0~0~0~0~0~0~1~0~0~0~1~0~0~0~0
love-punjab~0~0~0~0~0~0~0~1~0~0~0~1~0~0~0~0~0~0
praktan~0~0~0~0~0~0~0~1~0~1~0~0~0~0~0~0~0~0
mungaru-male-2~0~0~0~0~0~0~0~1~0~1~0~0~0~0~0~0~0~0
aanandam~0~0~0~0~0~0~0~1~0~1~0~0~0~0~0~0~0~0
bambukat~0~0~0~0~0~0~0~1~0~0~0~1~0~0~0~0~0~0
new-on-netflix~0~0~0~0~0~0~0~0~0~0~0~0~0~0~0~0~0~0
whats-new-on-amazon-prime-in-june-2019~0~0~0~0~0~0~0~0~0~0~0~0~0~0~0~0~0~0
gharwali-baharwali~0~0~0~0~0~0~1~1~0~1~0~0~0~0~0~0~0~0
beta~0~0~0~0~0~0~1~1~0~1~0~0~0~0~0~0~0~0
nirahua-chalal-sasural-2~0~0~0~0~0~0~1~1~0~1~0~0~0~0~0~0~0~0
ram-lakhan-bhojpuri~0~0~0~0~0~0~1~0~0~1~0~1~0~0~0~0~0~0
aashik-aawara~0~0~0~0~0~0~1~1~0~1~0~0~0~0~0~0~0~0
sajan-chale-sasural-2~0~0~0~0~0~0~1~0~0~0~0~0~0~0~0~0~0~0
mokama-0-km~0~0~0~0~0~0~1~1~0~1~0~0~0~0~0~0~0~0
babuaa~0~0~0~0~0~0~1~1~0~1~0~0~0~0~0~0~0~0
bam-bam-bol-raha-hai-kashi~0~0~0~0~0~0~1~1~0~0~0~0~0~0~0~0~0~0
lavari~0~0~0~0~0~0~0~1~0~0~0~0~0~0~0~0~0~0
kaik-karne-yaar~0~0~0~0~0~0~0~0~0~1~0~1~0~0~0~0~0~0
hutututu-aavi-ramat-ni-rutu~0~0~0~0~0~0~0~1~0~0~0~1~0~0~0~0~0~0
polam-pol~0~0~0~0~0~0~0~1~0~0~0~1~0~0~0~0~0~0
kiriti-o-kalo-bhromor~0~0~0~0~0~0~0~0~0~0~0~0~1~1~0~0~0~0
romance-complicated~0~0~0~0~0~0~0~1~0~1~0~1~0~0~0~0~0~0
khawto~0~0~0~0~0~0~0~0~0~1~0~0~0~1~0~0~0~0
zorawar~0~0~0~0~0~0~1~1~0~1~0~0~0~0~0~0~0~0
daav-thai-gayo-yaar~0~0~0~0~0~0~0~1~0~0~0~1~0~0~0~0~0~0
saadey-cm-saab~0~0~0~0~0~0~1~0~0~0~0~1~0~1~0~0~0~0
shaheb-bibi-golaam~0~0~0~0~0~0~0~1~0~0~0~0~1~1~0~0~0~0
tuu-to-gayo~0~0~0~0~0~0~0~1~0~0~0~1~0~1~0~0~0~0
cinemawala~0~0~0~0~0~0~0~1~0~0~0~0~0~0~0~0~0~0
kanha~0~0~0~0~0~0~0~1~0~0~0~0~0~0~0~0~0~0
bastu-shaap~0~0~0~0~0~0~0~0~0~1~0~0~0~0~0~0~1~0
shankhachil~0~0~0~0~0~0~0~1~0~0~0~0~0~0~0~0~0~0
vaisakhi-list~0~0~0~0~0~0~0~1~0~0~0~1~0~0~0~0~0~0
phuntroo~0~0~0~0~0~0~0~0~0~1~0~1~0~0~0~0~0~0
half-ticket~0~0~0~0~0~0~0~1~0~0~0~1~0~0~0~0~0~0
passport~0~0~0~0~0~0~0~1~0~0~0~1~0~0~0~0~0~0
kaptaan~0~0~0~0~0~0~0~0~0~0~0~0~0~0~0~0~0~0
wrong-side-raju~0~0~0~0~0~0~0~1~0~0~0~0~0~1~0~0~0~0
poshter-girl~0~0~0~0~0~0~0~1~0~0~0~1~0~0~0~0~0~0
eagoler-chokh~0~0~0~0~0~0~0~1~0~0~0~0~1~1~0~0~0~0
vazandar~0~0~0~0~0~0~0~1~0~0~0~1~0~0~0~0~0~0
yz~0~0~0~0~0~0~0~1~0~0~0~1~0~0~0~0~0~0
byomkesh-o-chiriakhana~0~0~0~0~0~0~0~0~0~0~0~0~1~1~0~0~0~0
jaundya-na-balasaheb~0~0~0~0~0~0~0~1~0~0~0~1~0~0~0~0~0~0
zulfiqar~0~0~0~0~0~0~0~1~0~0~0~0~0~0~0~0~0~0
thai-jashe~0~0~0~0~0~0~0~1~0~0~0~1~0~0~0~0~0~0
mukunda-murari~0~0~0~0~0~0~0~1~0~0~0~1~0~0~0~0~0~0
ardaas~0~0~0~0~0~0~0~1~0~0~0~0~0~0~0~0~0~0
anuraga-karikkin-vellam~0~0~0~0~0~0~0~1~0~1~0~1~0~0~0~0~0~0
chakravyuha~0~0~0~0~0~0~1~1~0~1~0~0~0~0~0~0~0~0
nikka-zaildar~0~0~0~0~0~0~0~1~0~1~0~1~0~0~0~0~0~0
neerdose~0~0~0~0~0~0~0~1~0~0~0~1~0~0~0~0~0~0
shivalinga-kannada~0~0~0~0~0~0~0~1~0~0~0~0~0~1~0~0~0~0
action-hero-biju~0~0~0~0~0~0~1~1~0~0~0~1~0~0~0~0~0~0
irudhi-suttru~0~0~0~0~0~0~0~1~0~0~0~0~0~0~0~0~0~0
maheshinte-prathikaram~0~0~0~0~0~0~0~1~0~0~0~1~0~0~0~0~0~0
kotigobba-2~0~0~0~0~0~0~1~0~0~1~0~0~0~0~0~0~0~0
rajini-murugan~0~0~0~0~0~0~0~1~0~1~0~1~0~0~0~0~0~0
kodi~0~0~0~0~0~0~1~1~0~0~0~0~0~1~0~0~0~0
kattappanayile-rithwik-roshan~0~0~0~0~0~0~0~1~0~0~0~1~0~0~0~0~0~0
doddmane-hudga~0~0~0~0~0~0~1~0~0~1~0~0~0~0~0~0~0~0
ambarsariya~0~0~0~0~0~0~0~1~0~1~0~1~0~1~0~0~0~0
godhi-banna-sadharna-mykattu~0~0~0~0~0~0~0~1~0~0~0~0~0~0~0~0~0~0
iru-mugan~0~0~0~0~0~0~1~0~0~0~0~0~0~1~0~0~0~0
sardaarji-2~0~0~0~0~0~0~0~0~0~1~0~1~0~0~0~0~0~0
oppam~0~0~0~0~0~0~0~1~0~0~0~0~0~1~0~0~0~0
u-turnkannada~0~0~0~0~0~0~0~0~0~0~0~0~1~1~0~0~0~0
kaashmora-tamil~0~0~0~0~0~0~1~0~0~0~0~0~0~1~0~0~0~0
jacobinte-swargarajyam~0~0~0~0~0~0~0~1~0~0~0~0~0~0~0~0~0~0
remo~0~0~0~0~0~0~0~0~0~1~0~1~0~0~0~0~0~0
the-legend-of-tarzan-3d~0~0~0~0~0~0~1~0~1~0~0~0~0~0~0~0~0~0
achcham-yenbadhu-madamaiyada~0~0~0~0~0~0~1~1~0~1~0~0~0~1~0~0~0~0
the-revenant~0~0~0~0~0~0~0~1~0~0~0~0~0~1~0~0~0~0
sully~0~0~0~0~0~0~0~1~0~0~0~0~0~0~1~0~0~0
inferno~0~0~0~0~0~0~0~1~0~0~0~0~1~1~0~0~0~0
moana-3d~0~0~0~0~0~0~0~0~1~0~1~1~0~0~0~0~0~0
zootopia-3d~0~0~0~0~0~0~0~0~0~0~1~1~0~0~0~0~0~0
ice-age-collision-course-3d~0~0~0~0~0~0~0~0~0~0~0~0~0~0~0~0~0~0
ventilator-marathi~0~0~0~0~0~0~0~1~0~0~0~1~0~0~0~0~0~0
soggade-chinni-nayana~0~0~0~0~0~0~0~1~0~0~0~1~0~0~0~0~0~0
sardaar-gabbar-singh~0~0~0~0~0~0~1~1~0~1~0~1~0~0~0~0~0~0
premam~0~0~0~0~0~0~0~0~0~0~0~1~0~0~0~0~0~0
brahmotsavam~0~0~0~0~0~0~1~1~0~0~0~0~0~0~0~0~0~0
force-2~0~0~0~0~0~0~1~0~0~0~0~0~0~1~0~0~0~0
suicide-squad-3d~0~0~0~0~0~0~1~0~1~0~0~0~0~1~0~0~0~0
pellichoopulu~0~0~0~0~0~0~0~1~0~1~0~1~0~0~0~0~0~0
finding-dory-3d~0~0~0~0~0~0~0~0~1~0~1~1~0~0~0~0~0~0
theri~0~0~0~0~0~0~1~1~0~0~0~0~0~1~0~0~0~0
oopiri~0~0~0~0~0~0~0~1~0~1~0~1~0~0~0~0~0~0
nannaku-prematho~0~0~0~0~0~0~1~1~0~1~0~0~0~0~0~0~0~0
independence-day-resurgence-3d~0~0~0~0~0~0~0~0~0~0~0~0~0~0~0~0~0~0
te3n~0~0~0~0~0~0~0~1~0~0~0~0~1~1~0~0~0~0
devai-kottai-kathal~0~0~0~0~0~0~0~1~0~1~0~0~0~0~0~0~0~0
bumblebee-telugu~0~0~0~0~0~0~1~0~1~0~0~0~0~0~0~0~0~0
crocodile-island-and-aero-bike-7d~0~0~0~0~0~0~0~1~0~0~0~0~0~0~0~0~0~0
bumblebee-tamil~0~0~0~0~0~0~1~0~1~0~0~0~0~0~0~0~0~0
bumblebee-imax-2d~0~0~0~0~0~0~1~0~1~0~0~0~0~0~0~0~0~0
baar-baar-dekho~0~0~0~0~0~0~0~1~0~1~0~0~0~0~0~0~0~0
bumblebee-hindi-4dx~0~0~0~0~0~0~1~0~1~0~0~0~0~0~0~0~0~0
bumblebee-hindi-exclusively-for-women~0~0~0~0~0~0~1~0~1~0~0~0~0~0~0~0~0~0
bumblebee-hindi~0~0~0~0~0~0~1~0~1~0~0~0~0~0~0~0~0~0
bumblebee-exclusively-for-women~0~0~0~0~0~0~1~0~1~0~0~0~0~0~0~0~0~0
natsamrat~0~0~0~0~0~0~0~1~0~0~0~0~0~0~0~0~0~0
pulimurugan~0~0~0~0~0~0~1~1~0~0~0~0~0~1~0~0~0~0
the-angry-birds-movie-3d~0~0~0~0~0~0~1~0~0~0~1~1~0~0~0~0~0~0
fantastic-beasts-and-where-to-find-them-3d~0~0~0~0~0~0~0~1~1~0~0~0~0~0~0~0~0~0
24~0~0~0~0~0~0~1~0~0~0~0~0~0~1~0~0~0~0
bumblebee-4dx-exclusively-for-women~0~0~0~0~0~0~1~0~1~0~0~0~0~0~0~0~0~0
sarrainodu~0~0~0~0~0~0~1~1~0~1~0~0~0~0~0~0~0~0
happy-bhag-jayegi~0~0~0~0~0~0~0~0~0~1~0~1~0~0~0~0~0~0
dhruva~0~0~0~0~0~0~1~0~0~0~0~0~0~1~0~0~0~0
baaghi~0~0~0~0~0~0~1~0~0~1~0~0~0~0~0~0~0~0
janatha-garage~0~0~0~0~0~0~1~1~0~0~0~0~0~0~0~0~0~0
a-aa~0~0~0~0~0~0~0~1~0~1~0~1~0~0~0~0~0~0
deadpool~0~0~0~0~0~0~1~0~1~0~0~0~0~0~0~0~0~0
x-men-apocalypse-3d~0~0~0~0~0~0~0~0~0~0~0~0~0~0~0~0~0~0
kahaani-2~0~0~0~0~0~0~0~0~0~0~0~0~0~1~0~0~0~0
kung-fu-panda-3-3d~0~0~0~0~0~0~1~0~0~0~1~1~0~0~0~0~0~0
mohenjo-daro~0~0~0~0~0~0~1~0~1~1~0~0~0~0~0~0~0~0
dishoom~0~0~0~0~0~0~1~0~1~0~0~0~0~0~0~0~0~0
wazir~0~0~0~0~0~0~0~1~0~0~0~0~1~1~0~0~0~0
befikre~0~0~0~0~0~0~0~1~0~1~0~1~0~0~0~0~0~0
doctor-strange-3d~0~0~0~0~0~0~1~0~1~0~0~0~0~0~0~0~0~0
sairat~0~0~0~0~0~0~0~1~0~1~0~0~0~0~0~0~0~0
ki-ka~0~0~0~0~0~0~0~1~0~1~0~1~0~0~0~0~0~0
shivaay~0~0~0~0~0~0~1~1~0~0~0~0~0~0~0~0~0~0
batman-v-superman-dawn-of-justice-3d~0~0~0~0~0~0~0~0~0~0~0~0~0~0~0~0~0~0
the-conjuring-2~0~0~0~0~0~0~0~0~0~0~0~0~0~1~0~0~1~0
udta-punjab~0~0~0~0~0~0~0~1~0~0~0~0~0~1~0~0~0~0
housefull-3~0~0~0~0~0~0~1~1~0~0~0~1~0~0~0~0~0~0
pawan-raja~0~0~0~0~0~0~1~1~0~0~0~0~0~0~0~0~0~0
hum-hai-hindustani~0~0~0~0~0~0~0~1~0~1~0~0~0~0~0~0~0~0
muqaddar~0~0~0~0~0~0~0~1~0~0~0~0~0~0~0~0~0~0
mehandi-laga-ke-rakhna~0~0~0~0~0~0~1~1~0~0~0~0~0~0~0~0~0~0
tabadala~0~0~0~0~0~0~1~1~0~0~0~0~0~0~0~0~0~0
nirahua-hindustani-2~0~0~0~0~0~0~1~1~0~1~0~0~0~0~0~0~0~0
kashi-amarnath~0~0~0~0~0~0~1~1~0~0~0~0~0~0~0~0~0~0
jigar-bhojpuri~0~0~0~0~0~0~0~1~0~0~0~0~0~0~0~0~0~0
satya-bhojpuri~0~0~0~0~0~0~1~1~0~0~0~0~0~0~0~0~0~0
aav-taru-kari-nakhu~0~0~0~0~0~0~0~1~0~0~0~1~0~0~0~0~0~0
sipahi-bhojpuri~0~0~0~0~0~0~1~1~0~0~0~0~0~0~0~0~0~0
shubh-aarambh~0~0~0~0~0~0~0~1~0~0~0~1~0~0~0~0~0~0
superstar-gujarati~0~0~0~0~0~0~0~0~0~1~0~0~0~1~0~0~0~0
carry-on-kesar~0~0~0~0~0~0~0~1~0~0~0~0~0~0~0~0~0~0
best-of-luck-laalu~0~0~0~0~0~0~0~1~0~0~0~1~0~0~0~0~0~0
cash-on-delivery~0~0~0~0~0~0~0~0~0~0~0~0~0~1~0~0~0~0
sat-shri-akaal-england~0~0~0~0~0~0~0~1~0~0~0~1~0~0~0~0~0~0
maacher-jhol~0~0~0~0~0~0~0~1~0~0~0~0~0~0~0~0~0~0
maharajah-duleep-singh-the-black-prince-hindi~0~0~0~0~0~0~0~1~0~0~0~0~0~0~0~0~0~0
jawker-dhan~0~0~0~0~0~0~0~0~1~0~0~0~0~0~0~0~0~1
bibaho-diaries~0~0~0~0~0~0~0~0~0~1~0~1~0~0~0~0~0~0
dashakriya~0~0~0~0~0~0~0~1~0~0~0~0~0~0~0~0~0~0
sangharsh~0~0~0~0~0~0~1~1~0~1~0~0~0~0~0~0~0~0
balam-ji-i-love-you~0~0~0~0~0~0~1~1~0~1~0~0~0~0~0~0~0~0
saugandh~0~0~0~0~0~0~1~1~0~0~0~0~0~0~0~0~0~0
munna-mawali~0~0~0~0~0~0~0~1~0~0~0~0~0~0~0~0~0~0
bairi-kangana-2~0~0~0~0~0~0~1~1~0~0~0~0~0~0~0~0~0~0
yeh-ishq-bada-bedardi-hai~0~0~0~0~0~0~1~1~0~1~0~0~0~0~0~0~0~0
deewanapan~0~0~0~0~0~0~1~0~0~1~0~1~0~0~0~0~0~0
gadar-2~0~0~0~0~0~0~0~1~0~0~0~0~0~0~0~0~0~0
nirahua-hindustani-3~0~0~0~0~0~0~1~1~0~1~0~0~0~0~0~0~0~0
ventilator~0~0~0~0~0~0~0~1~0~0~0~1~0~0~0~0~0~0
dulhan-chahi-pakistan-se-2~0~0~0~0~0~0~1~1~0~0~0~0~0~0~0~0~0~0
vandha-villas~0~0~0~0~0~0~0~0~0~0~0~1~0~0~0~0~0~0
back-bencher~0~0~0~0~0~0~0~1~0~0~0~0~0~0~0~0~0~0
natsamrat-gujarati~0~0~0~0~0~0~0~1~0~0~0~0~0~0~0~0~0~0
reva~0~0~0~0~0~0~0~1~0~0~0~0~0~0~0~0~0~0
manojder-adbhut-bari~0~0~0~0~0~0~0~1~0~0~0~1~0~0~0~0~0~0
bidaay-byomkesh~0~0~0~0~0~0~0~1~0~0~0~0~0~1~0~0~0~0
asche-abar-shabor~0~0~0~0~0~0~0~1~0~0~0~0~0~1~0~0~0~0
ashke~0~0~0~0~0~0~0~1~0~1~0~0~1~0~0~0~0~0
laung-laachi~0~0~0~0~0~0~0~1~0~1~0~0~0~0~0~0~0~0
bumblebee-2d-4dx~0~0~0~0~0~0~1~0~1~0~0~0~0~0~0~0~0~0
bumblebee~0~0~0~0~0~0~1~0~1~0~0~0~0~0~0~0~0~0
bhaworiya~0~0~0~0~0~0~0~1~0~0~0~0~0~0~0~0~0~0
bijoya~0~0~0~0~0~0~0~1~0~1~0~0~0~0~0~0~0~0
bhaai-vyakti-ki-valli~0~0~0~0~0~0~0~1~0~0~0~0~0~0~1~0~0~0
ajay-passayyadu~0~0~0~0~0~0~0~1~0~0~0~1~0~0~0~0~0~0
aduva-gombe~0~0~0~0~0~0~0~1~0~0~0~0~0~0~0~0~0~0
1948-kaalam-paranjathu~0~0~0~0~0~0~0~1~0~0~0~0~0~0~0~0~0~0
happy-anniversary~0~0~0~0~0~0~0~1~0~0~0~0~0~0~0~0~0~0
page 91 of 91~0~0~0~0~0~0~0~0~0~0~0~0~0~0~0~0~0~0
page 2 of 91~0~0~0~0~0~0~0~0~0~0~0~0~0~0~0~0~0~0
best-friends-kannada~0~0~0~0~0~0~0~1~0~1~0~0~0~0~0~0~0~0
fan~0~0~0~0~0~0~0~1~0~0~0~0~0~1~0~0~0~0
2019 bollywood and hollywood movies~0~0~0~0~0~0~0~0~0~0~0~0~0~0~0~0~0~0
neerja~0~0~0~0~0~0~0~1~0~0~0~0~0~0~1~0~0~0
pink~0~0~0~0~0~0~0~1~0~0~0~0~0~1~0~0~0~0
kapoor-sons~0~0~0~0~0~0~0~1~0~1~0~1~0~0~0~0~0~0
dear-zindagi~0~0~0~0~0~0~0~1~0~1~0~0~0~0~0~0~0~0
ae-dil-hai-mushkil~0~0~0~0~0~0~0~1~0~1~0~0~0~0~0~0~0~0
kabali~0~0~0~0~0~0~1~1~0~0~0~0~0~1~0~0~0~0
rustom~0~0~0~0~0~0~0~1~0~0~0~0~0~1~0~0~0~0
ms-dhoni-the-untold-story~0~0~0~0~0~0~0~0~0~0~0~0~0~0~0~0~0~0
captain-america-civil-war-3d~0~0~0~0~0~0~0~0~0~0~0~0~0~0~0~0~0~0
airlift~0~0~0~0~0~0~0~1~0~0~0~0~0~1~0~0~0~0
sultan~0~0~0~0~0~0~1~1~0~0~0~0~0~0~0~0~0~0
the-jungle-book-3d~0~0~0~0~0~0~0~1~1~0~0~0~0~0~0~0~0~0
meghnad-badh-rahasya~0~0~0~0~0~0~0~1~0~0~0~0~0~1~0~0~0~0
dangal~0~0~0~0~0~0~0~1~0~0~0~0~0~0~1~0~0~0
channa-mereya~0~0~0~0~0~0~0~1~0~1~0~0~0~0~0~0~0~0
cockpit~0~0~0~0~0~0~0~1~1~0~0~0~0~0~0~0~0~0
vitamin-she~0~0~0~0~0~0~0~1~0~1~0~1~0~0~0~0~0~0
projapoti-biskut~0~0~0~0~0~0~0~0~0~1~0~1~0~0~0~0~0~0
saab-bahadar~0~0~0~0~0~0~0~0~0~0~0~1~1~1~0~0~0~0
rabb-da-radio~0~0~0~0~0~0~0~1~0~1~0~0~0~0~0~0~0~0
hrudayantar~0~0~0~0~0~0~0~1~0~0~0~0~0~0~0~0~0~0
bishorjon~0~0~0~0~0~0~0~1~0~1~0~0~0~0~0~0~0~0
love-ni-bhavai~0~0~0~0~0~0~0~1~0~0~0~1~0~0~0~0~0~0
byomkesh-o-agniban~0~0~0~0~0~0~0~0~0~0~0~0~1~1~0~0~0~0
muramba~0~0~0~0~0~0~0~1~0~0~0~1~0~0~0~0~0~0
chakravarthy~0~0~0~0~0~0~1~0~0~0~0~0~0~1~0~0~0~0
operation-alamelamma~0~0~0~0~0~0~0~0~0~1~0~1~0~1~0~0~0~0
pappa-tamne-nahi-samjaay~0~0~0~0~0~0~0~1~0~0~0~1~0~0~0~0~0~0
baghtos-kay-mujra-kar~0~0~0~0~0~0~0~1~0~0~0~0~0~0~0~0~0~0
lahoriye~0~0~0~0~0~0~0~1~0~1~0~0~0~0~0~0~0~0
chowka~0~0~0~0~0~0~0~1~0~0~0~0~0~1~0~0~0~0
yeti-obhijaan~0~0~0~0~0~0~0~0~1~0~0~0~0~1~0~0~0~0
karsandas-pay-use~0~0~0~0~0~0~0~1~0~1~0~1~0~0~0~0~0~0
mugulu-nage~0~0~0~0~0~0~0~0~0~1~0~1~0~0~0~0~0~0
nikka-zaildar-2~0~0~0~0~0~0~0~1~0~0~0~1~0~0~0~0~0~0
tarak~0~0~0~0~0~0~1~0~0~1~0~0~0~0~0~0~0~0
super-singh~0~0~0~0~0~0~0~0~1~1~0~1~0~0~0~0~0~0
victory-2~0~0~0~0~0~0~0~0~0~1~0~1~0~0~0~0~0~0
gultoo~0~0~0~0~0~0~0~1~0~0~0~0~0~1~0~0~0~0
fera-feri-hera-feri~0~0~0~0~0~0~0~1~0~0~0~1~0~0~0~0~0~0
raambo-2~0~0~0~0~0~0~1~0~0~0~0~1~0~1~0~0~0~0
mr-mrs-420-returns~0~0~0~0~0~0~0~0~0~1~0~1~0~0~0~0~0~0
byomkesh-gowtro~0~0~0~0~0~0~0~0~0~0~0~0~0~1~0~0~0~1
sharato-lagu~0~0~0~0~0~0~0~1~0~1~0~1~0~0~0~0~0~0
drishtikone~0~0~0~0~0~0~0~1~0~1~0~0~0~0~0~0~0~0
uma~0~0~0~0~0~0~0~1~0~0~0~0~0~0~0~0~0~0
guptodhoner-sondhane~0~0~0~0~0~0~0~1~0~0~0~0~1~1~0~0~0~0
mar-gaye-oye-loko~0~0~0~0~0~0~0~0~0~1~0~1~0~0~0~0~0~0
golak-bugni-bank-te-batua~0~0~0~0~0~0~0~1~0~1~0~0~0~0~0~0~0~0
pushpak-vimaan~0~0~0~0~0~0~0~1~0~0~0~0~0~0~0~0~0~0
ek-je-chhilo-raja~0~0~0~0~0~0~0~1~0~0~0~0~0~0~0~0~0~1
masterpiece~0~0~0~0~0~0~1~1~0~0~0~0~0~0~0~0~0~0
humble-politician-nograj~0~0~0~0~0~0~0~1~0~0~0~1~0~0~0~0~0~0
laavaan-phere~0~0~0~0~0~0~0~0~0~1~0~1~0~0~0~0~0~0
amazon-obhijaan~0~0~0~0~0~0~1~0~1~0~0~0~0~1~0~0~0~0
sajjan-singh-rangroot~0~0~0~0~0~0~1~1~0~0~0~0~0~0~0~0~0~0
chamak~0~0~0~0~0~0~0~0~0~1~0~1~0~0~0~0~0~0
mulshi-pattern~0~0~0~0~0~0~0~1~0~0~0~0~0~0~0~0~0~0
vadhayiyaan-ji-vadhayiyaan~0~0~0~0~0~0~0~0~0~1~0~1~0~0~0~0~0~0
anjaniputra~0~0~0~0~0~0~1~0~0~1~0~0~0~0~0~0~0~0
haami~0~0~0~0~0~0~0~1~0~0~0~0~0~0~0~0~0~0
sudani-from-nigeria~0~0~0~0~0~0~0~1~0~0~0~0~0~0~0~0~0~0
qismat~0~0~0~0~0~0~0~1~0~1~0~0~0~0~0~0~0~0
ondu-motteya-kathe~0~0~0~0~0~0~0~1~0~0~0~1~0~0~0~0~0~0
posto~0~0~0~0~0~0~0~1~0~0~0~0~0~0~0~0~0~0
mufti~0~0~0~0~0~0~1~1~0~0~0~0~0~0~0~0~0~0
boyz~0~0~0~0~0~0~0~1~0~0~0~1~0~0~0~0~0~0
manje-bistre~0~0~0~0~0~0~0~1~0~1~0~1~0~0~0~0~0~0
bharjari~0~0~0~0~0~0~0~1~0~1~0~0~0~0~0~0~0~0
the-great-father~0~0~0~0~0~0~0~1~0~0~0~0~0~1~0~0~0~0
vekh-baraatan-challiyan~0~0~0~0~0~0~0~0~0~1~0~1~0~0~0~0~0~0
villain-malayalam~0~0~0~0~0~0~0~0~0~0~0~0~0~1~0~0~0~1
parava~0~0~0~0~0~0~1~1~0~0~0~1~0~0~0~0~0~0
thondimuthalum-dhriksakshiyum~0~0~0~0~0~0~0~1~0~0~0~1~0~0~0~0~0~0
take-off~0~0~0~0~0~0~0~1~0~0~0~0~0~1~0~0~0~0
kavan~0~0~0~0~0~0~0~1~0~0~0~0~0~1~0~0~0~0
hebbuli~0~0~0~0~0~0~1~1~0~0~0~0~0~0~0~0~0~0
velai-illa-pattathari-2~0~0~0~0~0~0~1~1~0~0~0~0~0~0~0~0~0~0
njandukalude-naattil-oridavela~0~0~0~0~0~0~0~1~0~1~0~1~0~0~0~0~0~0
faster-fene~0~0~0~0~0~0~0~0~0~0~0~0~1~1~0~0~0~0
theeran-adhigaaram-ondru~0~0~0~0~0~0~1~0~0~0~0~0~0~1~0~0~0~0
chi-va-chi-sau-ka~0~0~0~0~0~0~0~0~0~1~0~1~0~0~0~0~0~0
ezra~0~0~0~0~0~0~0~0~0~0~0~0~0~1~0~0~1~0
munthirivallikal-thalirkkumbol~0~0~0~0~0~0~0~1~0~0~0~0~0~0~0~0~0~0
si-iii-tamil~0~0~0~0~0~0~1~1~0~0~0~0~0~1~0~0~0~0
ramaleela~0~0~0~0~0~0~0~1~0~0~0~0~0~1~0~0~0~0
ti-saddhya-kay-karte~0~0~0~0~0~0~0~1~0~1~0~0~0~0~0~0~0~0
raajakumara~0~0~0~0~0~0~1~1~0~0~0~0~0~0~0~0~0~0
vikram-vedha~0~0~0~0~0~0~0~0~0~0~0~0~0~1~0~0~0~0
bairavaa~0~0~0~0~0~0~1~0~0~1~0~0~0~0~0~0~0~0
aravindante-athidhikal~0~0~0~0~0~0~0~1~0~0~0~0~0~0~0~0~0~0
gujjubhai-most-wanted~0~0~0~0~0~0~0~1~0~0~0~1~0~0~0~0~0~0
tagaru~0~0~0~0~0~0~1~1~0~0~0~0~0~0~0~0~0~0
gulabjaam~0~0~0~0~0~0~0~1~0~0~0~1~0~0~0~0~0~0
chal-man-jeetva-jaiye~0~0~0~0~0~0~0~1~0~0~0~0~0~0~0~0~0~0
boyz-2~0~0~0~0~0~0~0~1~0~0~0~1~0~0~0~0~0~0
bucket-list~0~0~0~0~0~0~0~1~0~0~0~0~0~0~0~0~0~0
ye-re-ye-re-paisa~0~0~0~0~0~0~0~1~0~0~0~1~0~0~0~0~0~0
abrahaminte-santhathikal~0~0~0~0~0~0~0~1~0~0~0~0~0~1~0~0~0~0
koode~0~0~0~0~0~0~0~1~0~1~0~0~0~0~0~0~0~0
farzand~0~0~0~0~0~0~0~1~0~0~0~0~0~0~1~0~0~0
aadhi~0~0~0~0~0~0~0~1~0~0~0~0~0~1~0~0~0~0
shu-thayu~0~0~0~0~0~0~0~1~0~0~0~1~0~0~0~0~0~0
theevandi~0~0~0~0~0~0~0~0~0~0~0~1~0~0~0~0~0~0
aapla-manus~0~0~0~0~0~0~0~1~0~0~0~0~0~1~0~0~0~0
varathan~0~0~0~0~0~0~0~1~0~0~0~0~0~1~0~0~0~0
sarkari-hi-pra-shale-kasaragodu-koduge-ramanna-rai~0~0~0~0~0~0~0~0~0~0~0~0~0~0~0~0~0~0
the-villain~0~0~0~0~0~0~1~1~0~0~0~0~0~0~0~0~0~0
imaikkaa-nodigal~0~0~0~0~0~0~0~0~0~1~0~0~0~1~0~0~0~0
kadaikutty-singam~0~0~0~0~0~0~1~1~0~1~0~0~0~0~0~0~0~0
aadu-2~0~0~0~0~0~0~0~1~0~0~0~1~0~0~0~0~0~0
ani-dr-kashinath-ghanekar~0~0~0~0~0~0~0~1~0~0~0~0~0~0~1~0~0~0
vada-chennai~0~0~0~0~0~0~0~1~0~0~0~0~0~1~0~0~0~0
thaanaa-serndha-koottam~0~0~0~0~0~0~1~1~0~0~0~1~0~0~0~0~0~0
carry-on-jatta-2~0~0~0~0~0~0~0~0~0~1~0~1~0~0~0~0~0~0
naal~0~0~0~0~0~0~0~1~0~0~0~0~0~0~0~0~0~0
wonder-woman-3d~0~0~0~0~0~0~1~0~1~0~0~0~0~0~0~0~0~0
beauty-and-the-beast-3d~0~0~0~0~0~0~0~0~0~1~0~0~1~0~0~0~0~0
tumhari-sulu~0~0~0~0~0~0~0~1~0~0~0~1~0~0~0~0~0~0
vivegam~0~0~0~0~0~0~1~0~0~0~0~0~0~1~0~0~0~0
kong-skull-island-3d~0~0~0~0~0~0~0~0~0~0~0~0~0~0~0~0~0~0
dunkirk~0~0~0~0~0~0~1~1~0~0~0~0~0~0~0~0~0~0
bareilly-ki-barfi~0~0~0~0~0~0~0~0~0~1~0~1~0~0~0~0~0~0
logan~0~0~0~0~0~0~1~1~0~0~0~0~0~0~0~0~0~0
justice-league-3d~0~0~0~0~0~0~1~0~1~0~0~0~0~0~0~0~0~0
ninnu-kori~0~0~0~0~0~0~0~1~0~1~0~0~0~0~0~0~0~0
annabelle-creation~0~0~0~0~0~0~0~0~0~0~0~0~0~0~0~0~0~0
mubarakan~0~0~0~0~0~0~0~0~0~0~0~1~0~0~0~0~0~0
arjun-reddy~0~0~0~0~0~0~1~1~0~1~0~0~0~0~0~0~0~0
katamarayudu~0~0~0~0~0~0~1~0~0~1~0~1~0~0~0~0~0~0
shatamanam-bhavati~0~0~0~0~0~0~0~1~0~0~0~0~0~0~0~0~0~0
jab-harry-met-sejal~0~0~0~0~0~0~0~1~0~1~0~1~0~0~0~0~0~0
jagga-jasoos~0~0~0~0~0~0~0~0~1~0~0~1~1~0~0~0~0~0
spider-man-homecoming-3d~0~0~0~0~0~0~0~0~0~0~0~0~0~0~0~0~0~0
duvvada-jagannadham~0~0~0~0~0~0~1~0~0~0~0~1~0~1~0~0~0~0
sachin-a-billion-dreams~0~0~0~0~0~0~0~0~0~0~0~0~0~0~0~0~0~0
fukrey-returns~0~0~0~0~0~0~0~0~0~0~0~1~0~1~0~0~0~0
secret-superstar~0~0~0~0~0~0~0~1~0~0~0~0~1~0~0~0~0~0
fidaa~0~0~0~0~0~0~0~1~0~1~0~1~0~0~0~0~0~0
jai-lava-kusa~0~0~0~0~0~0~1~0~0~1~0~0~0~0~0~0~0~0
khaidi-no-150~0~0~0~0~0~0~1~0~0~0~0~0~0~1~0~0~0~0
venom~0~0~0~0~0~0~1~0~0~0~0~0~0~0~0~0~0~0
velaikkaran~0~0~0~0~0~0~0~0~0~0~0~0~0~0~0~0~0~0
96~0~0~0~0~0~0~0~1~0~0~0~0~0~0~0~0~0~0
ant-man-and-the-wasp~0~0~0~0~0~0~1~0~1~0~0~0~0~0~0~0~0~0
chekka-chivantha-vaanam~0~0~0~0~0~0~1~0~0~0~0~0~0~1~0~0~0~0
the-nun~0~0~0~0~0~0~0~0~0~0~0~0~0~1~0~0~1~0
kayamkulam-kochunni~0~0~0~0~0~0~0~1~0~1~0~0~0~0~0~0~0~0
taxiwaala~0~0~0~0~0~0~0~0~0~0~0~1~0~1~0~0~0~0
agnyaathavaasi~0~0~0~0~0~0~1~0~0~1~0~0~0~1~0~0~0~0
deva-daasu~0~0~0~0~0~0~1~1~0~0~0~1~0~0~0~0~0~0
incredibles-2~0~0~0~0~0~0~1~0~1~0~1~0~0~0~0~0~0~0
mca-middle-class-abbayi~0~0~0~0~0~0~0~1~0~1~0~0~0~0~0~0~0~0
naa-peru-surya-naa-illu-india~0~0~0~0~0~0~1~1~0~0~0~0~0~0~0~0~0~0
jumanji-welcome-to-the-jungle-3d~0~0~0~0~0~0~0~0~0~0~0~0~0~0~0~0~0~0
deadpool-2~0~0~0~0~0~0~1~0~1~0~0~1~0~0~0~0~0~0
black-panther-3d~0~0~0~0~0~0~1~0~1~0~0~0~0~0~0~0~0~0
kaala~0~0~0~0~0~0~0~1~0~0~0~0~0~0~0~0~0~0
mission-impossible-fallout~0~0~0~0~0~0~0~0~0~0~0~0~0~0~0~0~0~0
baaghi-2~0~0~0~0~0~0~1~0~0~1~0~0~0~1~0~0~0~0
mahanati~0~0~0~0~0~0~0~1~0~0~0~0~0~0~1~0~0~0
gold~0~0~0~0~0~0~0~1~0~0~0~0~0~0~1~0~0~0
raid~0~0~0~0~0~0~0~1~0~0~0~0~0~1~0~0~0~0
thugs-of-hindostan~0~0~0~0~0~0~1~1~1~0~0~0~0~0~0~0~0~0
aravindha-sametha~0~0~0~0~0~0~1~1~0~1~0~0~0~0~0~0~0~0
sonu-ke-titu-ki-sweety~0~0~0~0~0~0~0~0~0~1~0~1~0~0~0~0~0~0
jurassic-world-fallen-kingdom~0~0~0~0~0~0~0~0~0~0~0~0~0~0~0~0~0~0
sarkar~0~0~0~0~0~0~1~0~0~0~0~0~0~1~0~0~0~0
race-3~0~0~0~0~0~0~1~0~0~0~0~0~0~1~0~0~0~0
thor-ragnarok~0~0~0~0~0~0~0~0~0~0~0~0~0~0~0~0~0~0
mersal~0~0~0~0~0~0~1~0~0~0~0~0~1~1~0~0~0~0
tubelight~0~0~0~0~0~0~0~1~0~0~0~0~0~0~0~0~0~0
hindi-medium~0~0~0~0~0~0~0~1~0~0~0~1~0~0~0~0~0~0
kaabil~0~0~0~0~0~0~1~1~0~0~0~0~0~1~0~0~0~0
fast-and-furious-8~0~0~0~0~0~0~1~0~0~0~0~0~0~1~0~0~0~0
judwaa-2~0~0~0~0~0~0~1~1~0~1~0~1~0~0~0~0~0~0
badrinath-ki-dulhania~0~0~0~0~0~0~0~0~0~1~0~1~0~0~0~0~0~0
toilet-ek-prem-katha~0~0~0~0~0~0~0~0~0~1~0~1~0~0~0~0~0~0
raees~0~0~0~0~0~0~1~1~0~0~0~0~0~0~0~0~0~0
jolly-llb-2~0~0~0~0~0~0~0~1~0~0~0~1~0~0~0~0~0~0
golmaal-again~0~0~0~0~0~0~1~0~0~0~0~1~0~0~0~0~0~0
baahubali-2-the-conclusion-hindi~0~0~0~0~0~0~0~0~0~0~0~0~0~0~0~0~0~0
bharat-ane-nenu~0~0~0~0~0~0~0~1~0~0~0~0~0~1~0~0~0~0
rangasthalam~0~0~0~0~0~0~0~1~0~1~0~0~0~0~0~0~0~0
badhaai-ho~0~0~0~0~0~0~0~1~0~0~0~1~0~0~0~0~0~0
stree~0~0~0~0~0~0~0~0~0~0~0~1~0~0~0~0~1~0
geetha-govindam~0~0~0~0~0~0~0~0~0~1~0~1~0~0~0~0~0~0
raazi~0~0~0~0~0~0~0~1~0~0~0~0~0~1~0~0~0~0
tiger-zinda-hai~0~0~0~0~0~0~1~0~0~0~0~0~0~1~0~0~0~0
sanju~0~0~0~0~0~0~0~1~0~0~0~0~0~0~1~0~0~0
padmaavat-3d~0~0~0~0~0~0~0~1~0~0~0~0~0~0~0~0~0~0
20~0~0~0~0~0~0~1~0~0~0~0~0~0~1~0~0~0~0
best offbeat hindi & english movies of the year 2017 - bookmyshow~0~0~0~0~0~0~0~0~0~0~0~0~0~0~0~0~0~0
top most viewed bollywood & hollywood youtube video trailers 2018 - bookmyshow~0~0~0~0~0~0~0~0~0~0~0~0~0~0~0~0~0~0
maharshi~0~0~0~0~0~0~1~1~0~1~0~0~0~0~0~0~0~0
top rated bollywood & hollywood movies~0~0~0~0~0~0~0~0~0~0~0~0~0~0~0~0~0~0
movies#home#search#hamburgerlogo_googleg_48dplogo_googleg_48dpconfirming seats illustration~0~0~0~0~0~0~0~0~0~0~0~0~0~0~0~0~0~0
latest 2d movies 2019~0~0~0~0~0~0~0~0~0~0~0~0~0~0~0~0~0~0
student-of-the-year-2~0~0~0~0~0~0~0~1~0~1~0~0~0~0~0~0~0~0
box-office~0~0~0~0~0~0~0~0~0~0~0~0~0~0~0~0~0~0
comingsoon~0~0~0~0~0~0~0~0~0~0~0~0~0~0~0~0~0~0
puss-in-boots-2~0~0~0~0~0~0~0~0~1~0~1~0~0~0~0~0~0~0
latest nowshoing movies 2019~0~0~0~0~0~0~0~0~0~0~0~0~0~0~0~0~0~0
randamoozham~0~0~0~0~0~0~0~1~0~0~0~0~0~0~0~0~0~0
gujjubhai-3~0~0~0~0~0~0~0~1~0~0~0~0~0~0~0~0~0~0
inshallah~0~0~0~0~0~0~0~1~0~0~0~0~0~0~0~0~0~0
goodachari-2~0~0~0~0~0~0~1~0~0~0~0~0~0~0~0~0~0~0
rannbhoomi-hindi~0~0~0~0~0~0~1~1~0~0~0~0~0~0~0~0~0~0
sooryavanshi~0~0~0~0~0~0~0~1~0~0~0~0~0~0~0~0~0~0
wonder-woman-1984~0~0~0~0~0~0~1~0~1~0~0~0~0~0~0~0~0~0
guna-369~0~0~0~0~0~0~0~1~0~0~0~0~0~0~0~0~0~0
indu-ki-jawani~0~0~0~0~0~0~0~1~0~0~0~0~0~0~0~0~0~0
navy-day~0~0~0~0~0~0~0~1~0~0~0~0~0~0~0~0~0~0
barbie~0~0~0~0~0~0~0~1~0~0~0~0~0~0~0~0~0~0
bad-boy-hindi~0~0~0~0~0~0~0~1~0~0~0~0~0~0~0~0~0~0
chiyaan-vikram-58~0~0~0~0~0~0~0~1~0~0~0~0~0~0~0~0~0~0
khuda-hafiz~0~0~0~0~0~0~1~0~0~1~0~0~0~0~0~0~0~0
sardar-udham-singh~0~0~0~0~0~0~0~1~0~0~0~0~0~0~0~0~0~0
udham-singh~0~0~0~0~0~0~0~1~0~0~0~0~0~0~0~0~0~0
jayeshbhai-jordaar~0~0~0~0~0~0~0~1~0~0~0~0~0~0~0~0~0~0
malang~0~0~0~0~0~0~0~1~0~0~0~0~0~0~0~0~0~0
major~0~0~0~0~0~0~0~1~0~0~0~0~0~0~0~0~0~0
takht~0~0~0~0~0~0~0~1~0~0~0~0~0~0~0~0~0~0
fatteshikast~0~0~0~0~0~0~0~1~0~0~0~0~0~0~0~0~0~0
asuran~0~0~0~0~0~0~0~1~0~0~0~0~0~0~0~0~0~0
sarileru-neekevvaru~0~0~0~0~0~0~0~1~0~0~0~0~0~0~0~0~0~0
darbar~0~0~0~0~0~0~0~1~0~0~0~0~0~0~0~0~0~0
veer-yodha-mahabali~0~0~0~0~0~0~0~1~0~0~0~0~0~0~0~0~0~0
mati-helo-pade-re~0~0~0~0~0~0~0~1~0~0~0~0~0~0~0~0~0~0
machchhu~0~0~0~0~0~0~0~1~0~0~0~0~0~0~0~0~0~0
17th-september~0~0~0~0~0~0~0~1~0~0~0~0~0~0~0~0~0~0
abyakto~0~0~0~0~0~0~0~1~0~0~0~0~0~0~0~0~0~0
kottayam-kunjachan-2~0~0~0~0~0~0~0~1~0~0~0~0~0~0~0~0~0~0
nanak~0~0~0~0~0~0~0~1~0~0~0~0~0~0~0~0~0~0
jallianwala-bagh~0~0~0~0~0~0~0~1~0~0~0~0~0~0~0~0~0~0
moothon~0~0~0~0~0~0~0~1~0~0~0~0~0~0~0~0~0~0
april~0~0~0~0~0~0~0~0~0~0~0~0~0~1~0~0~0~0
avane-srimannarayana~0~0~0~0~0~0~0~1~0~0~0~0~0~0~0~0~0~0
seethamma-bandalu-sirimallige-thottu~0~0~0~0~0~0~0~1~0~0~0~0~0~0~0~0~0~0
15th-august~0~0~0~0~0~0~0~1~0~0~0~0~0~0~0~0~0~0
tendlya~0~0~0~0~0~0~0~1~0~0~0~0~0~0~0~0~0~0
akrandan~0~0~0~0~0~0~0~1~0~0~0~0~0~0~0~0~0~0
aranya~0~0~0~0~0~0~0~1~0~0~0~0~0~0~0~0~0~0
veeramadevi~0~0~0~0~0~0~0~1~0~0~0~0~0~0~0~0~0~0
2-states~0~0~0~0~0~0~0~0~0~1~0~1~0~0~0~0~0~0
party~0~0~0~0~0~0~0~1~0~0~0~0~0~0~0~0~0~0
gypsy~0~0~0~0~0~0~0~1~0~0~0~0~0~0~0~0~0~0
ranga~0~0~0~0~0~0~0~1~0~0~0~0~0~0~0~0~0~0
kannum-kannum-kollaiadithaal~0~0~0~0~0~0~0~1~0~0~0~0~0~0~0~0~0~0
adho-andha-paravai-pola~0~0~0~0~0~0~0~1~1~0~0~0~0~0~0~0~0~0
kuttrapayirchi~0~0~0~0~0~0~0~1~0~0~0~0~0~0~0~0~0~0
vairii~0~0~0~0~0~0~0~1~0~0~0~0~0~0~0~0~0~0
rajavukku-check~0~0~0~0~0~0~0~1~0~0~0~0~0~1~0~0~0~0
vaazhkaiya-thedi-naanum-ponen~0~0~0~0~0~0~0~1~0~0~0~0~0~0~0~0~0~0
pon-manickavel~0~0~0~0~0~0~0~1~0~0~0~0~0~0~0~0~0~0
ka-the-forest~0~0~0~0~0~0~0~0~0~0~0~0~0~1~0~0~0~0
asura-guru~0~0~0~0~0~0~0~1~0~0~0~0~0~0~0~0~0~0
peipasi~0~0~0~0~0~0~0~1~0~0~0~0~0~0~0~0~0~0
naadodigal-2~0~0~0~0~0~0~0~1~0~0~0~0~0~0~0~0~0~0
velvet-nagaram~0~0~0~0~0~0~0~0~0~0~0~0~0~1~0~0~0~0
swords-and-sceptres~0~0~0~0~0~0~0~1~0~0~0~0~0~0~0~0~0~0
captive-state~0~0~0~0~0~0~0~0~0~0~0~0~0~1~0~0~0~0
we-didnt-kill-mia~0~0~0~0~0~0~0~0~0~0~0~0~1~0~0~0~0~0
the-fountainhead~0~0~0~0~0~0~0~1~0~0~0~0~0~0~0~0~0~0
white-boy-rick~0~0~0~0~0~0~0~1~0~0~0~0~0~0~0~0~0~0
marshall~0~0~0~0~0~0~0~1~0~0~0~0~0~0~1~0~0~0
life-of-the-party~0~0~0~0~0~0~0~0~0~0~0~1~0~0~0~0~0~0
i-kill-giants~0~0~0~0~0~0~0~0~0~0~0~0~0~1~0~0~0~0
disobedience~0~0~0~0~0~0~0~1~0~1~0~0~0~0~0~0~0~0
eli~0~0~0~0~0~0~0~1~0~0~0~0~0~0~0~0~0~0
the-kid-who-would-be-king~0~0~0~0~0~0~0~1~0~0~0~0~0~0~0~0~0~0
the-sun-is-also-a-star~0~0~0~0~0~0~0~1~0~0~0~0~0~0~0~0~0~0
roman-j-israel-esq~0~0~0~0~0~0~0~1~0~0~0~0~0~0~0~0~0~0
under-the-silver-lake~0~0~0~0~0~0~0~0~0~0~0~0~0~1~0~0~0~0
kings-english~0~0~0~0~0~0~0~0~0~1~0~0~0~0~0~0~0~0
the-house-of-tomorrow~0~0~0~0~0~0~0~1~0~0~0~1~0~0~0~0~0~0
the-little-stranger~0~0~0~0~0~0~0~1~0~0~0~0~0~0~0~0~0~0
reprisal~0~0~0~0~0~0~0~1~0~0~0~0~0~0~0~0~0~0
puzzle~0~0~0~0~0~0~0~1~0~0~0~0~0~0~0~0~0~0
kin~0~0~0~0~0~0~1~0~0~0~0~0~0~0~0~0~0~0
colette~0~0~0~0~0~0~0~1~0~0~0~0~0~0~1~0~0~0
slender-man~0~0~0~0~0~0~0~0~0~0~0~0~1~1~0~0~1~0
hes-out-there~0~0~0~0~0~0~0~1~0~0~0~0~0~0~0~0~0~0
i-tonya~0~0~0~0~0~0~0~1~0~0~0~1~0~0~1~0~0~0
night-school~0~0~0~0~0~0~0~1~0~0~0~1~0~0~0~0~0~0
the-first-purge~0~0~0~0~0~0~1~0~0~0~0~0~0~0~0~0~1~0
winchester~0~0~0~0~0~0~0~1~0~0~0~0~0~0~0~0~0~0
polaroid~0~0~0~0~0~0~0~0~0~0~0~0~0~0~0~0~1~0
father-figures~0~0~0~0~0~0~0~1~0~0~0~1~0~0~0~0~0~0
dare-and-lovely~0~0~0~0~0~0~0~1~0~0~0~0~0~0~0~0~0~0
shakeela-biopic~0~0~0~0~0~0~0~0~0~0~0~0~0~0~0~0~0~0
jhund~0~0~0~0~0~0~0~1~0~0~0~0~0~0~1~0~0~0
aankhen-2~0~0~0~0~0~0~0~1~0~0~0~0~0~0~0~0~0~0
mamankam~0~0~0~0~0~0~0~1~0~0~0~0~0~0~0~0~0~0
sons-of-sardar-battle-of-saragarhi~0~0~0~0~0~0~0~0~0~0~0~0~0~0~0~0~0~0
gustakhiyan~0~0~0~0~0~0~0~1~0~0~0~0~0~0~0~0~0~0
mahavir-karna~0~0~0~0~0~0~0~1~0~0~0~0~0~0~0~0~0~0
kaamyaab~0~0~0~0~0~0~0~1~0~0~0~0~0~0~0~0~0~0
my-name-is-raga~0~0~0~0~0~0~0~1~0~0~0~0~0~0~0~0~0~0
the-body~0~0~0~0~0~0~0~1~0~0~0~0~0~0~0~0~0~0
10-nahi-40~0~0~0~0~0~0~0~1~0~0~0~0~0~0~0~0~0~0
imali~0~0~0~0~0~0~0~1~0~0~0~0~0~0~0~0~0~0
tadkaa~0~0~0~0~0~0~0~0~0~1~0~1~0~0~0~0~0~0
murder-at-koh-e-fiza~0~0~0~0~0~0~0~1~0~0~0~0~0~0~0~0~0~0
jio-baccho~0~0~0~0~0~0~0~1~0~0~0~0~0~0~0~0~0~0
chuskit~0~0~0~0~0~0~0~1~0~0~0~0~0~0~0~0~0~0
herogiri~0~0~0~0~0~0~0~1~0~0~0~0~0~0~0~0~0~0
sher-singh~0~0~0~0~0~0~0~1~0~0~0~0~0~0~0~0~0~0
dil-hamar-mane-na~0~0~0~0~0~0~1~1~0~1~0~0~0~0~0~0~0~0
mil-gaili-chandaniya~0~0~0~0~0~0~0~1~0~0~0~0~0~0~0~0~0~0
hamar-mission-hamar-banaras~0~0~0~0~0~0~0~1~0~0~0~0~0~0~0~0~0~0
prem-ki-padhai~0~0~0~0~0~0~0~1~0~1~0~0~0~0~0~0~0~0
les-salopes-or-the-naturally-wanton-pleasure-of-skin~0~0~0~0~0~0~0~1~0~0~0~0~0~0~0~0~0~0
rabba-ishq-na-hove~0~0~0~0~0~0~1~1~0~1~0~0~0~0~0~0~0~0
pass-na-pass~0~0~0~0~0~0~0~1~0~0~0~0~0~0~0~0~0~0
mr-jasoos~0~0~0~0~0~0~0~1~0~0~0~0~0~0~0~0~0~0
cactus-bengali~0~0~0~0~0~0~0~1~0~0~0~0~0~0~0~0~0~0
bobbyr-bondhura~0~0~0~0~0~0~0~1~0~0~0~0~0~0~0~0~0~0
kedara~0~0~0~0~0~0~0~1~0~0~0~0~0~0~0~0~0~0
unicorn~0~0~0~0~0~0~0~1~0~0~0~0~0~0~0~0~0~0
das-da~0~0~0~0~0~0~0~0~0~1~0~1~0~0~0~0~0~0
jonaki~0~0~0~0~0~0~0~1~0~0~0~0~0~0~0~0~0~0
professor-shonku-o-el-dorado~0~0~0~0~0~0~0~1~0~0~0~0~0~0~0~0~0~0
senapati~0~0~0~0~0~0~0~1~0~0~0~0~0~0~0~0~0~0
amar-akashe-megh-brishti~0~0~0~0~0~0~0~1~0~0~0~0~0~0~0~0~0~0
swapnajaal~0~0~0~0~0~0~0~1~0~0~0~0~0~0~0~0~0~0
ghare-o-baire~0~0~0~0~0~0~0~1~0~0~0~0~0~0~0~0~0~0
paran-bandhu-re~0~0~0~0~0~0~0~1~0~0~0~0~0~0~0~0~0~0
singham-punjabi~0~0~0~0~0~0~0~1~0~0~0~0~0~0~0~0~0~0
television~0~0~0~0~0~0~0~1~0~0~0~0~0~0~0~0~0~0
padmini~0~0~0~0~0~0~0~1~0~0~0~0~0~0~0~0~0~0
ormayil-oru-shishiram~0~0~0~0~0~0~0~1~0~0~0~0~0~0~0~0~0~0
arabikkadalinte-rani-the-metro-woman~0~0~0~0~0~0~0~1~0~0~0~0~0~0~0~0~0~0
jellykettu~0~0~0~0~0~0~0~1~0~0~0~0~0~0~0~0~0~0
sukumara-kuruppu~0~0~0~0~0~0~0~1~0~0~0~0~0~0~1~0~0~0
charlies-angel~0~0~0~0~0~0~0~0~0~1~0~1~0~0~0~0~0~0
bilal~0~0~0~0~0~0~0~1~0~0~0~0~0~0~0~0~0~0
love-action-drama~0~0~0~0~0~0~0~1~0~0~0~0~0~0~0~0~0~0
aadujeevitham~0~0~0~0~0~0~0~1~0~0~0~0~0~0~0~0~0~0
veerapakru~0~0~0~0~0~0~0~1~0~0~1~0~0~0~0~0~0~0
and-the-oscar-goes-to~0~0~0~0~0~0~0~1~0~0~0~0~0~0~0~0~0~0
2403ft~0~0~0~0~0~0~0~1~0~0~0~0~0~0~0~0~0~0
sleeplessly-yours~0~0~0~0~0~0~0~1~0~0~0~0~0~0~0~0~0~0
zam-zam~0~0~0~0~0~0~0~1~0~0~0~0~0~0~0~0~0~0
apara-sundara-neelakasham~0~0~0~0~0~0~0~1~0~0~0~0~0~0~0~0~0~0
gramavasees~0~0~0~0~0~0~0~1~0~0~0~0~0~0~0~0~0~0
manoharam~0~0~0~0~0~0~0~1~0~0~0~0~0~0~0~0~0~0
porinju-mariyam-jose~0~0~0~0~0~0~0~1~0~0~0~0~0~0~0~0~0~0
finals~0~0~0~0~0~0~0~1~0~0~0~0~0~0~0~0~0~0
veerappan~0~0~0~0~0~0~0~1~0~0~0~0~0~0~0~0~0~0
pailwaan~0~0~0~0~0~0~0~1~0~0~0~0~0~0~0~0~0~0
kaalachakra~0~0~0~0~0~0~0~1~0~0~0~0~0~0~0~0~0~0
kotigobba-3~0~0~0~0~0~0~0~1~0~0~0~0~0~0~0~0~0~0
puraave~0~0~0~0~0~0~0~1~0~0~0~0~0~0~0~0~0~0
bhinna~0~0~0~0~0~0~0~0~0~0~0~0~0~1~0~0~0~0
kiss-kannada~0~0~0~0~0~0~0~1~0~0~0~0~0~0~0~0~0~0
butterfly~0~0~0~0~0~0~0~1~0~0~0~0~0~0~0~0~0~0
randhawa~0~0~0~0~0~0~1~1~0~0~0~0~0~1~0~0~0~0
happy-days-kannada~0~0~0~0~0~0~0~1~0~0~0~0~0~0~0~0~0~0
dhwaja~0~0~0~0~0~0~0~1~0~0~0~0~0~0~0~0~0~0
tesla~0~0~0~0~0~0~0~0~0~0~0~0~0~1~0~0~0~0
1888~0~0~0~0~0~0~0~1~0~0~0~0~0~0~0~0~0~0
mysore-diaries~0~0~0~0~0~0~0~1~0~0~0~0~0~0~0~0~0~0
nagarjuna~0~0~0~0~0~0~0~1~0~0~0~0~0~0~0~0~0~0
bmw~0~0~0~0~0~0~0~1~0~1~0~1~0~0~0~0~0~0
vrithra~0~0~0~0~0~0~0~1~0~0~0~0~0~0~0~0~0~0
paani~0~0~0~0~0~0~0~1~0~0~0~0~0~0~0~0~0~0
gadbad-gondhal~0~0~0~0~0~0~0~0~0~1~0~1~0~0~0~0~0~0
sorry~0~0~0~0~0~0~0~1~0~0~0~0~0~0~0~0~0~0
waaras~0~0~0~0~0~0~0~1~0~0~0~0~0~0~0~0~0~0
salman-society~0~0~0~0~0~0~0~1~0~0~0~0~0~0~0~0~0~0
15-august~0~0~0~0~0~0~0~1~0~0~0~0~0~0~0~0~0~0
aata-bass~0~0~0~0~0~0~0~1~0~0~0~0~0~0~0~0~0~0
patri-boys~0~0~0~0~0~0~0~1~0~0~0~0~0~0~0~0~0~0
sangat~0~0~0~0~0~0~0~1~0~0~0~0~0~0~0~0~0~0
hridayi-vasant-phultana~0~0~0~0~0~0~0~1~0~0~0~0~0~0~0~0~0~0
iblis-marathi~0~0~0~0~0~0~0~1~0~0~0~0~0~0~0~0~0~0
shivaa~0~0~0~0~0~0~0~1~0~0~0~0~0~0~0~0~0~0
bonus~0~0~0~0~0~0~0~1~0~0~0~0~0~0~0~0~0~0
once-more~0~0~0~0~0~0~0~1~0~0~0~0~0~0~0~0~0~0
vitthala-vitthala~0~0~0~0~0~0~0~1~0~0~0~0~0~0~0~0~0~0
rajan~0~0~0~0~0~0~0~1~0~0~0~0~0~0~0~0~0~0
hora~0~0~0~0~0~0~0~1~0~0~0~0~0~0~0~0~0~0
divyang~0~0~0~0~0~0~0~1~0~0~0~0~0~0~0~0~0~0
ayushman-bhava~0~0~0~0~0~0~0~1~0~0~0~0~0~0~0~0~0~0
hero-2019~0~0~0~0~0~0~0~1~0~0~0~0~0~0~0~0~0~0
shivaranjani~0~0~0~0~0~0~0~1~0~0~0~0~0~0~0~0~0~0
geetha-chalo~0~0~0~0~0~0~0~0~0~0~0~1~0~0~0~0~0~0
mass-power~0~0~0~0~0~0~1~1~0~0~0~0~0~0~0~0~0~0
nuvvu-evaro-nenu-evaro~0~0~0~0~0~0~0~0~0~1~0~1~0~0~0~0~0~0
kalki~0~0~0~0~0~0~0~1~0~0~0~0~0~0~0~0~0~0
uppena~0~0~0~0~0~0~0~1~0~0~0~0~0~0~0~0~0~0
ninnu-veedani-needanu-nene~0~0~0~0~0~0~0~1~0~0~0~0~0~0~0~0~0~0
ugram~0~0~0~0~0~0~1~1~0~0~0~0~0~0~0~0~0~0
lalijo-lalijo~0~0~0~0~0~0~0~0~0~0~0~0~0~1~0~0~1~0
good-bad-ugly~0~0~0~0~0~0~0~1~0~0~0~0~0~0~0~0~0~0
1945~0~0~0~0~0~0~0~1~0~0~0~0~0~0~0~0~0~0
evadra-hero~0~0~0~0~0~0~1~0~0~0~0~1~0~1~0~0~0~0
tenali-ramakrishna-ba-bl~0~0~0~0~0~0~0~1~0~0~0~0~0~0~0~0~0~0
burrakatha~0~0~0~0~0~0~0~1~0~0~0~0~0~0~0~0~0~0
nishabdam~0~0~0~0~0~0~0~1~0~0~0~0~0~0~0~0~0~0
malli-malli-chusa~0~0~0~0~0~0~0~1~0~0~0~0~0~0~0~0~0~0
47-days~0~0~0~0~0~0~0~1~0~0~0~0~0~0~0~0~0~0
vajra-kavachadhara-govinda~0~0~0~0~0~0~0~1~0~0~0~0~0~0~0~0~0~0
arjun-suravaram~0~0~0~0~0~0~0~1~0~0~0~0~0~0~0~0~0~0
ninnu-thalachi~0~0~0~0~0~0~0~1~0~0~0~0~0~0~0~0~0~0
operation-gold-fish~0~0~0~0~0~0~1~0~0~0~0~0~0~0~0~0~0~0
nuvvevaru~0~0~0~0~0~0~0~1~0~1~0~0~0~0~0~0~0~0
aaviri~0~0~0~0~0~0~0~1~0~0~0~0~0~0~0~0~0~0
that-is-mahalakshmi~0~0~0~0~0~0~0~1~0~0~0~0~0~0~0~0~0~0
valmiki~0~0~0~0~0~0~1~0~0~0~0~0~0~0~0~0~0~0
hawaa~0~0~0~0~0~0~0~0~0~0~0~1~0~0~0~0~0~0
ala~0~0~0~0~0~0~0~1~0~0~0~0~0~0~0~0~0~0
bangaru-bullodu~0~0~0~0~0~0~0~1~0~0~0~0~0~0~0~0~0~0
voter~0~0~0~0~0~0~0~0~0~0~0~0~0~1~0~0~0~0
maara~0~0~0~0~0~0~0~1~0~0~0~0~0~0~0~0~0~0
mdhuravada~0~0~0~0~0~0~0~1~0~0~0~0~0~0~0~0~0~0
rajavaru-ranigaru~0~0~0~0~0~0~0~1~0~0~0~0~0~0~0~0~0~0
kutrappayirchi~0~0~0~0~0~0~0~1~0~0~0~0~0~0~0~0~0~0
4g~0~0~0~0~0~0~0~1~0~0~0~0~0~0~0~0~0~0
enai-noki-paayum-thota~0~0~0~0~0~0~0~0~0~1~0~0~0~1~0~0~0~0
mariyappan~0~0~0~0~0~0~0~1~0~0~0~0~0~0~1~0~0~0
china~0~0~0~0~0~0~0~1~0~0~0~0~0~0~0~0~0~0
jackpot~0~0~0~0~0~0~0~1~0~0~0~0~0~0~0~0~0~0
the-mosquito-philosophy~0~0~0~0~0~0~0~1~0~0~0~0~0~0~0~0~0~0
rk-nagar~0~0~0~0~0~0~0~1~0~1~0~1~0~0~0~0~0~0
kannadi~0~0~0~0~0~0~0~1~0~0~0~0~0~0~0~0~0~0
vallavanukkum-vallavan~0~0~0~0~0~0~1~1~0~0~0~0~0~0~0~0~0~0
dhruva-natchathiram~0~0~0~0~0~0~1~0~0~0~0~0~0~1~0~0~0~0
madai-thiranthu~0~0~0~0~0~0~0~1~0~0~0~0~0~0~0~0~0~0
vinnaithaandi-varuvaayaa-2~0~0~0~0~0~0~0~1~0~0~0~0~0~0~0~0~0~0
dhaganam~0~0~0~0~0~0~0~0~0~0~0~0~0~1~0~0~0~0
dhanusu-raasi-neyargale~0~0~0~0~0~0~0~1~0~0~0~0~0~0~0~0~0~0
thumbaa~0~0~0~0~0~0~0~1~0~0~0~0~0~0~0~0~0~0
sangamithra~0~0~0~0~0~0~0~1~0~0~0~0~0~0~0~0~0~0
neeyum-naduvula-peyum~0~0~0~0~0~0~0~1~0~0~0~0~0~0~0~0~0~0
aramm-2~0~0~0~0~0~0~0~1~0~0~0~0~0~0~0~0~0~0
iravaakaalam~0~0~0~0~0~0~0~1~0~0~0~0~0~0~0~0~0~0
vanangamudi~0~0~0~0~0~0~0~1~0~0~0~0~0~0~0~0~0~0
kumki-2~0~0~0~0~0~0~0~1~0~0~0~0~0~0~0~0~0~0
shakthi~0~0~0~0~0~0~0~1~0~0~0~0~0~0~0~0~0~0
sixer~0~0~0~0~0~0~0~1~0~0~0~0~0~0~0~0~0~0
gramophone~0~0~0~0~0~0~0~1~0~0~0~0~0~0~0~0~0~0
yaar-ivargal~0~0~0~0~0~0~0~1~0~0~0~0~0~0~0~0~0~0
kural-388~0~0~0~0~0~0~0~0~0~0~0~0~0~1~0~0~0~0
adraa-raja-adidaa-nature-is-watching~0~0~0~0~0~0~0~1~0~0~0~1~0~0~0~0~0~0
iruttu~0~0~0~0~0~0~0~1~0~0~0~0~0~0~0~0~0~0
sinamkol~0~0~0~0~0~0~0~1~0~0~0~0~0~0~0~0~0~0
thevar-magan-2~0~0~0~0~0~0~0~1~0~0~0~0~0~0~0~0~0~0
aadai~0~0~0~0~0~0~0~1~0~0~0~0~0~0~0~0~0~0
maragatha-kaadu~0~0~0~0~0~0~0~1~0~0~0~0~0~0~0~0~0~0
katteri~0~0~0~0~0~0~0~1~0~0~0~0~0~0~0~0~1~0
paris-paris~0~0~0~0~0~0~0~1~0~0~0~0~0~0~0~0~0~0
arasiyalla-idhellam-saadharanam-appa~0~0~0~0~0~0~0~1~0~0~0~0~0~0~0~0~0~0
thavam~0~0~0~0~0~0~0~1~0~0~0~0~0~0~0~0~0~0
cinderella-tamil~0~0~0~0~0~0~0~1~0~0~0~0~0~0~0~0~0~0
maha~0~0~0~0~0~0~0~1~0~0~0~0~0~0~0~0~0~0
sillu-karuppatti~0~0~0~0~0~0~0~1~0~0~0~0~0~0~0~0~0~0
zombie~0~0~0~0~0~0~0~1~0~0~0~0~0~0~0~0~0~0
adithya-varma~0~0~0~0~0~0~0~1~0~0~0~0~0~0~0~0~0~0
jail~0~0~0~0~0~0~0~1~0~0~0~0~0~0~0~0~0~0
raangi~0~0~0~0~0~0~0~1~0~0~0~0~0~0~0~0~0~0
100-kadhal~0~0~0~0~0~0~0~1~0~0~0~0~0~0~0~0~0~0
mei~0~0~0~0~0~0~0~1~0~0~0~0~0~0~0~0~0~0
vaan~0~0~0~0~0~0~0~1~0~0~0~0~0~0~0~0~0~0
kettavannu-peredutha-nallavanda~0~0~0~0~0~0~0~1~0~0~0~0~0~0~0~0~0~0
ipc-376~0~0~0~0~0~0~0~1~0~0~0~0~0~0~0~0~0~0
oththa-serupp~0~0~0~0~0~0~0~1~0~0~0~0~0~0~0~0~0~0
gorilla~0~0~0~0~0~0~0~0~0~0~0~1~0~0~0~0~0~0
personal-shopper~0~0~0~0~0~0~0~1~0~0~0~0~0~1~0~0~0~0
the-voyage-of-doctor-dolittle~0~0~0~0~0~0~0~1~0~0~0~0~0~0~0~0~0~0
wingmen~0~0~0~0~0~0~0~1~0~0~0~0~0~0~0~0~0~0
million-dollar-nomad~0~0~0~0~0~0~0~1~0~0~0~0~0~0~0~0~0~0
phoenix-forgotten~0~0~0~0~0~0~0~1~0~0~0~0~0~0~0~0~0~0
black-butterfly~0~0~0~0~0~0~0~0~0~0~0~0~0~1~0~0~0~0
battle-of-the-sexes~0~0~0~0~0~0~0~1~0~0~0~1~0~0~1~0~0~0
cadaver~0~0~0~0~0~0~0~1~0~0~0~0~0~0~0~0~1~0
sherlock-gnomes~0~0~0~0~0~0~0~0~1~0~1~1~0~0~0~0~0~0
patient-zero~0~0~0~0~0~0~0~1~0~0~0~0~0~0~0~0~0~0
blaze~0~0~0~0~0~0~0~1~0~0~0~0~0~0~1~0~0~0
escape-plan-3-devils-station~0~0~0~0~0~0~0~0~0~0~0~0~0~0~0~0~0~0
war-on-everyone~0~0~0~0~0~0~0~1~0~0~0~0~0~0~0~0~0~0
a-kid-like-jake~0~0~0~0~0~0~0~1~0~0~0~0~0~0~0~0~0~0
upgrade~0~0~0~0~0~0~0~1~0~0~0~0~0~0~0~0~0~0
superfly~0~0~0~0~0~0~1~1~0~0~0~0~0~0~0~0~0~0
the-little-mermaid~0~0~0~0~0~0~0~1~0~0~0~0~0~0~0~0~0~0
serenity~0~0~0~0~0~0~0~1~0~0~0~0~0~0~0~0~0~0
a-simple-favor~0~0~0~0~0~0~0~0~0~0~0~0~0~1~0~0~0~0
the-hate-u-give~0~0~0~0~0~0~0~1~0~0~0~0~0~0~0~0~0~0
definition-of-fear~0~0~0~0~0~0~0~0~0~0~0~0~0~0~0~0~1~0
morbius~0~0~0~0~0~0~1~0~0~0~0~0~0~0~0~0~0~0
overlord~0~0~0~0~0~0~1~0~0~0~0~0~0~0~0~0~1~0
welcome-to-marwen~0~0~0~0~0~0~0~1~0~0~0~0~0~0~0~0~0~0
widows~0~0~0~0~0~0~0~1~0~0~0~0~0~0~0~0~0~0
terminal~0~0~0~0~0~0~0~1~0~0~0~0~0~1~0~0~0~0
friends-in-law~0~0~0~0~0~0~0~1~0~0~0~0~0~0~0~0~0~0
bad-times-at-the-el-royale~0~0~0~0~0~0~0~0~0~0~0~0~0~1~0~0~0~0
holmes-and-watson~0~0~0~0~0~0~1~0~0~0~0~1~0~0~0~0~0~1
the-current-war~0~0~0~0~0~0~0~1~0~0~0~0~0~0~0~0~0~0
the-wall~0~0~0~0~0~0~0~1~0~0~0~0~0~1~0~0~0~0
a-wrinkle-in-time~0~0~0~0~0~0~0~1~1~0~0~0~0~0~0~0~0~0
all-nighter~0~0~0~0~0~0~0~0~0~0~0~1~0~0~0~0~0~0
the-wedding-guest~0~0~0~0~0~0~0~1~0~0~0~0~0~0~0~0~0~0
ma~0~0~0~0~0~0~0~1~0~0~0~0~0~0~0~0~0~0
the-informer~0~0~0~0~0~0~0~1~0~0~0~0~0~0~0~0~0~0
the-favourite~0~0~0~0~0~0~0~1~0~0~0~0~0~0~0~0~0~0
the-mustang~0~0~0~0~0~0~1~0~0~0~0~0~0~0~0~0~0~0
what-they-had~0~0~0~0~0~0~0~1~0~0~0~0~0~0~0~0~0~0
vice~0~0~0~0~0~0~0~1~0~0~0~0~0~0~0~0~0~0
hotel-mumbai~0~0~0~0~0~0~0~1~0~0~0~0~0~0~0~0~0~0
beautiful-boy~0~0~0~0~0~0~0~1~0~0~0~0~0~0~1~0~0~0
unfriended-dark-web~0~0~0~0~0~0~0~0~0~0~0~0~0~0~0~0~0~0
our-house~0~0~0~0~0~0~0~1~0~0~0~0~0~0~0~0~0~0
snatched~0~0~0~0~0~0~0~0~0~0~0~1~0~0~0~0~0~0
crooked-house~0~0~0~0~0~0~0~1~0~0~0~0~1~0~0~0~0~0
on-the-basis-of-sex~0~0~0~0~0~0~0~1~0~0~0~0~0~0~1~0~0~0
the-shadow-within~0~0~0~0~0~0~0~0~0~0~0~0~0~0~0~0~1~0
the-shack~0~0~0~0~0~0~0~1~0~0~0~0~0~0~0~0~0~0
janis~0~0~0~0~0~0~0~1~0~0~0~0~0~0~0~0~0~0
the-ottoman-lieutenant~0~0~0~0~0~0~0~1~0~1~0~0~0~0~0~0~0~0
sheene~0~0~0~0~0~0~0~1~0~0~0~0~0~0~0~0~0~0
the-disappointments-room~0~0~0~0~0~0~0~0~0~0~0~0~0~1~0~0~1~0
according-to-matthew~0~0~0~0~0~0~0~1~0~0~0~0~0~0~0~0~0~0
proud-mary~0~0~0~0~0~0~1~0~0~0~0~0~0~1~0~0~0~0
blockers~0~0~0~0~0~0~0~0~0~0~0~1~0~0~0~0~0~0
best-friends~0~0~0~0~0~0~0~1~0~0~0~0~0~1~0~0~0~0
call-me-by-your-name~0~0~0~0~0~0~0~1~0~1~0~0~0~0~0~0~0~0
the-force~0~0~0~0~0~0~0~1~0~0~0~0~0~0~0~0~0~0
kursk~0~0~0~0~0~0~1~1~0~0~0~0~0~0~0~0~0~0
the-vanishing~0~0~0~0~0~0~0~0~0~0~0~0~0~1~0~0~0~0
shootout-at-kanpur~0~0~0~0~0~0~0~1~0~0~0~0~0~0~0~0~0~0
rocketry~0~0~0~0~0~0~0~1~0~0~0~0~0~0~0~0~0~0
dr-abdul-kalam~0~0~0~0~0~0~0~0~0~0~0~0~0~0~1~0~0~0
kick-2~0~0~0~0~0~0~0~1~0~0~0~0~0~0~0~0~0~0
sher-khan~0~0~0~0~0~0~0~1~0~0~0~0~0~0~0~0~0~0
love-in-tokyo~0~0~0~0~0~0~0~0~0~1~0~0~0~0~0~0~0~0
mangal-ho~0~0~0~0~0~0~0~1~0~0~0~0~0~0~0~0~0~0
gyarah~0~0~0~0~0~0~0~1~0~0~0~0~0~0~0~0~0~0
chanda-mama-door-ke~0~0~0~0~0~0~0~0~0~0~0~0~0~0~1~0~0~0
crack~0~0~0~0~0~0~0~1~0~0~0~0~0~1~0~0~0~0
zehan~0~0~0~0~0~0~0~1~0~0~0~0~0~0~0~0~0~0
krrish-4~0~0~0~0~0~0~1~0~0~0~0~0~0~0~0~0~0~0
song-of-scorpions~0~0~0~0~0~0~0~1~0~0~0~0~0~0~0~0~0~0
monsoon-football~0~0~0~0~0~0~0~1~0~0~0~0~0~0~0~0~0~0
yeh-hai-paranormal-ishq~0~0~0~0~0~0~0~1~0~0~0~0~0~0~0~0~0~0
blockbuster~0~0~0~0~0~0~0~1~0~0~0~0~0~0~0~0~0~0
gulab-jamun~0~0~0~0~0~0~0~1~0~0~0~0~0~0~0~0~0~0
lihaaf-the-quilt~0~0~0~0~0~0~0~0~0~0~0~0~0~0~0~0~0~0
section-375~0~0~0~0~0~0~0~1~0~0~0~0~0~0~0~0~0~0
swagat-hain~0~0~0~0~0~0~0~1~0~0~0~0~0~0~0~0~0~0
t-for-taj-mahal~0~0~0~0~0~0~0~1~0~0~0~0~0~0~0~0~0~0
brij-mohan-amar-rahe~0~0~0~0~0~0~0~1~0~0~0~0~0~0~0~0~0~0
kizie-aur-manny~0~0~0~0~0~0~0~1~0~0~0~0~0~0~0~0~0~0
dabangg-3~0~0~0~0~0~0~1~0~0~1~0~0~0~1~0~0~0~0
sapna-didi~0~0~0~0~0~0~0~0~0~0~0~0~0~1~1~0~0~0
hindi-medium-2~0~0~0~0~0~0~0~1~0~0~0~0~0~0~0~0~0~0
womaniya~0~0~0~0~0~0~0~1~0~0~0~0~0~0~0~0~0~0
jasmine~0~0~0~0~0~0~0~1~0~0~0~0~0~0~0~0~0~0
indira-the-movie~0~0~0~0~0~0~0~1~0~0~0~0~0~0~0~0~0~0
teen-aur-aadha~0~0~0~0~0~0~0~1~0~0~0~0~0~0~0~0~0~0
ghoomketu~0~0~0~0~0~0~0~1~0~0~0~1~0~0~0~0~0~0
bhonsle~0~0~0~0~0~0~0~1~0~0~0~0~0~0~0~0~0~0
mogul~0~0~0~0~0~0~0~1~0~0~0~0~0~0~1~0~0~0
cargo~0~0~0~0~0~0~0~1~0~0~0~0~0~0~0~0~0~0
firrkie~0~0~0~0~0~0~0~0~0~0~0~0~0~1~0~0~0~0
tom-dick-and-harry-returns~0~0~0~0~0~0~0~1~0~0~0~1~0~0~0~0~0~0
lafange-nawab~0~0~0~0~0~0~0~1~0~0~0~0~0~0~0~0~0~0
kya-tum~0~0~0~0~0~0~0~1~0~0~0~0~0~1~0~0~0~0
jhalki~0~0~0~0~0~0~0~1~0~0~0~0~0~0~0~0~0~0
mushkil~0~0~0~0~0~0~0~1~0~0~0~0~0~0~0~0~0~0
turram-khan~0~0~0~0~0~0~0~0~0~0~0~1~0~0~0~0~0~0
fauji-calling~0~0~0~0~0~0~0~1~0~0~0~0~0~0~0~0~0~0
radha-kyun-gori-main-kyun-kaala~0~0~0~0~0~0~0~1~0~0~0~0~0~0~0~0~0~0
gul-makai~0~0~0~0~0~0~0~1~0~0~0~0~0~0~0~0~0~0
teefa-in-trouble~0~0~0~0~0~0~1~0~0~1~0~1~0~0~0~0~0~0
campus~0~0~0~0~0~0~0~1~0~0~0~0~0~0~0~0~0~0
black-bud~0~0~0~0~0~0~0~1~0~0~0~0~0~0~0~0~0~0
time-to-dance~0~0~0~0~0~0~0~1~0~0~0~0~0~0~0~0~0~0
sridevi-bungalow~0~0~0~0~0~0~0~1~0~0~0~0~0~0~0~0~0~0
saand-ki-aankh~0~0~0~0~0~0~0~1~0~0~0~0~0~0~0~0~0~0
aapkey-kamre-mein-koi-rehta-hai~0~0~0~0~0~0~0~0~0~0~0~1~0~0~0~0~1~0
prassthanam~0~0~0~0~0~0~0~1~0~0~0~0~0~0~0~0~0~0
gunjan-saxena-biopic~0~0~0~0~0~0~0~0~0~0~0~0~0~0~0~0~0~0
the-pushkar-lodge~0~0~0~0~0~0~0~1~0~0~0~0~0~0~0~0~0~0
bala~0~0~0~0~0~0~0~1~0~0~0~0~0~0~0~0~0~0
pareeksha~0~0~0~0~0~0~0~1~0~0~0~0~0~0~0~0~0~0
chappad-phaad-ke~0~0~0~0~0~0~0~1~0~0~0~0~0~0~0~0~0~0
love-aaj-kal-2~0~0~0~0~0~0~0~1~0~0~0~0~0~0~0~0~0~0
police-channel-raman-raghav-a-city-a-killer~0~0~0~0~0~0~0~0~0~0~0~0~0~0~0~0~0~0
lal-singh-chaddha~0~0~0~0~0~0~0~1~0~0~0~0~0~0~0~0~0~0
madhubani~0~0~0~0~0~0~0~1~0~0~0~0~0~0~0~0~0~0
marudhar-express~0~0~0~0~0~0~0~1~0~0~0~0~0~0~0~0~0~0
the-storyteller~0~0~0~0~0~0~0~1~0~0~0~0~0~0~0~0~0~0
munnabhai-3~0~0~0~0~0~0~0~1~0~0~0~0~0~0~0~0~0~0
motherless-brooklyn~0~0~0~0~0~0~0~1~0~0~0~0~0~0~0~0~0~0
brahmastra~0~0~0~0~0~0~1~0~1~0~0~0~0~0~0~0~0~0
rajtilak~0~0~0~0~0~0~0~1~0~0~0~0~0~0~0~0~0~0
satyanweshi-byomkesh~0~0~0~0~0~0~0~1~0~0~0~0~0~0~0~0~0~0
ishq-khumari~0~0~0~0~0~0~0~1~0~0~0~0~0~0~0~0~0~0
parcel-bengali~0~0~0~0~0~0~0~1~0~0~0~0~0~0~0~0~0~0
sayanna-varthakal~0~0~0~0~0~0~0~1~0~0~0~0~0~0~0~0~0~0
singa~0~0~0~0~0~0~0~1~0~0~0~0~0~0~0~0~0~0
antagoni-shetty~0~0~0~0~0~0~0~1~0~0~0~0~0~0~0~0~0~0
makeup~0~0~0~0~0~0~0~1~0~0~0~0~0~0~0~0~0~0
eakam~0~0~0~0~0~0~0~1~0~0~0~0~0~0~0~0~0~0
gang-leader~0~0~0~0~0~0~0~1~0~0~0~0~0~0~0~0~0~0
paramapadham-vilayattu~0~0~0~0~0~0~1~1~0~0~0~0~0~1~0~0~0~0
masters-of-the-universe~0~0~0~0~0~0~0~1~0~0~0~0~0~0~0~0~0~0
bamfaad~0~0~0~0~0~0~0~1~0~0~0~0~0~0~0~0~0~0
main-jahan-rahoon~0~0~0~0~0~0~0~1~0~0~0~0~0~0~0~0~0~0
ye-saccha-swabhimaan-sahi-sangharsh~0~0~0~0~0~0~0~1~0~0~0~0~0~0~0~0~0~0
rustum~0~0~0~0~0~0~0~1~0~0~0~0~0~0~0~0~0~0
angrezi-medium~0~0~0~0~0~0~0~1~0~0~0~0~0~0~0~0~0~0
edaina-jaragocchu~0~0~0~0~0~0~0~1~0~0~0~0~0~0~0~0~0~0
magamuni~0~0~0~0~0~0~0~1~0~0~0~0~0~0~0~0~0~0
iit-krishnamurthy~0~0~0~0~0~0~0~1~0~0~0~0~0~0~0~0~0~0
saare-jahaan-se-achcha~0~0~0~0~0~0~0~1~0~0~0~0~0~0~0~0~0~0
kalavani-2~0~0~0~0~0~0~0~1~0~0~0~0~0~0~0~0~0~0
vanavasam~0~0~0~0~0~0~0~1~0~0~0~0~0~0~0~0~0~0
breakthrough~0~0~0~0~0~0~0~1~0~0~0~0~0~0~0~0~0~0
cowboy-ninja-viking~0~0~0~0~0~0~0~1~0~0~0~0~0~0~0~0~0~0
saade-saati~0~0~0~0~0~0~0~1~0~0~0~0~0~0~0~0~0~0
kadaram-kondan~0~0~0~0~0~0~0~1~0~0~0~0~0~0~0~0~0~0
tera-yaar-hoon-main~0~0~0~0~0~0~0~1~0~0~0~0~0~0~0~0~0~0
yubi-lukpi~0~0~0~0~0~0~0~1~0~0~0~0~0~0~0~0~0~0
f2-hindi~0~0~0~0~0~0~0~1~0~0~0~0~0~0~0~0~0~0
kakababur-protyaborton~0~0~0~0~0~0~0~1~0~0~0~0~0~0~0~0~0~0
kgf-chapter-2~0~0~0~0~0~0~0~1~0~0~0~0~0~0~0~0~0~0
venky-mama~0~0~0~0~0~0~0~1~0~0~0~0~0~0~0~0~0~0
anizham-thirunal-marthanda-varma-the-king-of-travancore~0~0~0~0~0~0~0~1~0~0~0~0~0~0~0~0~0~0
sangathamizhan~0~0~0~0~0~0~0~1~0~0~0~0~0~0~0~0~0~0
charlies-angles-reboot~0~0~0~0~0~0~0~1~0~0~0~0~0~0~0~0~0~0
sasi-lalitha~0~0~0~0~0~0~0~1~0~0~0~0~0~0~0~0~0~0
gulabo-sitabo~0~0~0~0~0~0~0~1~0~0~0~0~0~0~0~0~0~0
jiivi~0~0~0~0~0~0~0~1~0~0~0~0~0~0~0~0~0~0
belashuru~0~0~0~0~0~0~0~1~0~0~0~0~0~0~0~0~0~0
777-charlie~0~0~0~0~0~0~0~1~1~0~0~1~0~0~0~0~0~0
soorarai-pottru~0~0~0~0~0~0~0~1~0~0~0~0~0~0~0~0~0~0
zombieland-2~0~0~0~0~0~0~1~0~0~0~0~1~0~0~0~0~1~0
cobra~0~0~0~0~0~0~0~1~0~0~0~0~0~0~0~0~0~0
bole-chudiyan~0~0~0~0~0~0~0~1~0~0~0~0~0~0~0~0~0~0
thalaivi~0~0~0~0~0~0~0~1~0~0~0~0~0~0~0~0~0~0
housefull-4~0~0~0~0~0~0~0~1~0~0~0~0~0~0~0~0~0~0
shororipu-2-jotugriho~0~0~0~0~0~0~0~0~0~0~0~0~0~0~0~0~0~0
indian-2~0~0~0~0~0~0~1~1~0~0~0~0~0~1~0~0~0~0
missing-link~0~0~0~0~0~0~0~1~0~0~0~0~0~0~0~0~0~0
manmadhudu-2~0~0~0~0~0~0~0~1~0~0~0~0~0~0~0~0~0~0
chanakya~0~0~0~0~0~0~0~1~0~0~0~0~0~0~0~0~0~0
talvar-2~0~0~0~0~0~0~0~1~0~0~0~0~0~0~0~0~0~0
dehati-lakhera-no-1~0~0~0~0~0~0~0~1~0~0~0~0~0~0~0~0~0~0
sandeep-aur-pinky-faraar~0~0~0~0~0~0~0~0~0~0~0~1~0~1~0~0~0~0
kousalya-krishnamurthy~0~0~0~0~0~0~0~1~0~0~0~0~0~0~0~0~0~0
boxer-tamil~0~0~0~0~0~0~0~1~0~0~0~0~0~0~0~0~0~0
waah-zindagi~0~0~0~0~0~0~0~1~0~0~0~0~0~0~0~0~0~0
dancing-dad~0~0~0~0~0~0~0~1~0~0~0~0~0~0~0~0~0~0
mardaani-2~0~0~0~0~0~0~0~1~0~0~0~0~0~0~0~0~0~0
kaanbhatt~0~0~0~0~0~0~0~1~0~0~0~0~0~0~0~0~0~0
gurkha~0~0~0~0~0~0~0~1~0~0~0~0~0~0~0~0~0~0
the-addams-family~0~0~0~0~0~0~0~1~0~0~0~0~0~0~0~0~0~0
tuesdays-and-saturdays~0~0~0~0~0~0~0~1~0~0~0~0~0~0~0~0~0~0
labyrinth~0~0~0~0~0~0~0~0~0~0~0~0~0~1~0~0~0~0
the-front-runner~0~0~0~0~0~0~0~1~0~0~0~0~0~0~0~0~0~0
bagpat-ka-dulha~0~0~0~0~0~0~0~1~0~0~0~0~0~0~0~0~0~0
astittwa~0~0~0~0~0~0~0~1~0~0~0~0~0~0~0~0~0~0
gimmick~0~0~0~0~0~0~0~1~0~0~0~0~0~0~0~0~0~0
toll-gate~0~0~0~0~0~0~0~1~0~0~0~0~0~0~0~0~0~0
rajeeva~0~0~0~0~0~0~0~1~0~0~0~0~0~0~0~0~0~0
aakhri-dum-tak~0~0~0~0~0~0~0~1~0~0~0~0~0~0~0~0~0~0
sachin-the-movie~0~0~0~0~0~0~0~1~0~0~0~0~0~0~0~0~0~0
rajkumar-bhojpuri~0~0~0~0~0~0~0~1~0~0~0~0~0~0~0~0~0~0
chase-kannada~0~0~0~0~0~0~0~1~0~0~0~0~0~1~0~0~0~0
god-father-tamil~0~0~0~0~0~0~0~1~0~0~0~0~0~0~0~0~0~0
bhoot-police~0~0~0~0~0~0~0~0~0~0~0~1~0~0~0~0~1~0
shiddat-journey-beyond-love~0~0~0~0~0~0~0~1~0~0~0~0~0~0~0~0~0~0
paintings-in-the-dark~0~0~0~0~0~0~0~1~0~0~0~0~0~0~0~0~0~0
medium-spicy~0~0~0~0~0~0~0~1~0~0~0~0~0~0~0~0~0~0
viswadarshanam~0~0~0~0~0~0~0~1~0~0~0~0~0~0~0~0~0~0
paandi-muni~0~0~0~0~0~0~0~1~0~0~0~0~0~0~0~0~0~0
playmobil-the-movie~0~0~0~0~0~0~0~0~0~0~0~0~0~0~0~0~0~0
sabash-naidu~0~0~0~0~0~0~0~1~0~0~0~1~0~0~0~0~0~0
fathers-day-hindi~0~0~0~0~0~0~0~1~0~0~0~0~1~0~0~0~0~0
sarfarosh-2~0~0~0~0~0~0~0~1~0~0~0~0~0~0~0~0~0~0
andolan~0~0~0~0~0~0~0~1~0~0~0~0~0~0~0~0~0~0
the-reunions~0~0~0~0~0~0~0~1~0~0~0~0~0~0~0~0~0~0
chhotu-2~0~0~0~0~0~0~0~1~0~0~0~0~0~0~0~0~0~0
thug-life-malayalam~0~0~0~0~0~0~0~1~0~0~0~0~0~0~0~0~0~0
debi~0~0~0~0~0~0~0~1~0~0~0~0~0~0~0~0~0~0
pizza-2~0~0~0~0~0~0~0~1~0~0~0~0~0~0~0~0~0~0
dimakhilal~0~0~0~0~0~0~0~1~0~0~0~0~0~0~0~0~0~0
takkari-donga-chakkani-chukka~0~0~0~0~0~0~0~1~0~0~0~0~0~0~0~0~0~0
para-para-para~0~0~0~0~0~0~0~1~0~0~0~0~0~0~0~0~0~0
porukkies~0~0~0~0~0~0~0~1~0~0~0~1~0~0~0~0~0~0
kaalidas~0~0~0~0~0~0~0~1~0~0~0~0~0~0~0~0~0~0
keep-watching~0~0~0~0~0~0~0~0~0~0~0~0~0~1~0~0~1~0
bornoporichoy~0~0~0~0~0~0~0~1~0~0~0~0~0~0~0~0~0~0
tu-rajee-re~0~0~0~0~0~0~0~1~0~0~0~0~0~0~0~0~0~0
kaaliyan~0~0~0~0~0~0~0~1~0~0~0~0~0~0~0~0~0~0
relax-satya~0~0~0~0~0~0~0~1~0~0~0~0~0~0~0~0~0~0
local-via-dadar~0~0~0~0~0~0~0~1~0~0~0~0~0~0~0~0~0~0
ghawre-bairey-aaj~0~0~0~0~0~0~0~1~0~0~0~0~0~0~0~0~0~0
i-am-the-night~0~0~0~0~0~0~0~1~0~0~0~0~0~0~0~0~0~0
haftha~0~0~0~0~0~0~0~1~0~0~0~0~0~0~0~0~0~0
evvarikee-cheppoddu~0~0~0~0~0~0~0~1~0~0~0~0~0~0~0~0~0~0
o~0~0~0~0~0~0~0~0~0~0~0~0~0~1~0~0~1~0
tully~0~0~0~0~0~0~0~1~0~0~0~1~0~0~0~0~0~0
network~0~0~0~0~0~0~0~1~0~0~0~0~0~0~0~0~0~0
vakathirivu~0~0~0~0~0~0~0~1~0~0~0~0~0~0~0~0~0~0
proud-to-be-a-sikh-3~0~0~0~0~0~0~0~1~0~0~0~0~0~0~0~0~0~0
yesterday~0~0~0~0~0~0~0~1~0~0~0~0~0~0~0~0~0~0
raatchashi~0~0~0~0~0~0~0~1~0~0~0~0~0~0~0~0~0~0
ganit~0~0~0~0~0~0~0~1~0~0~0~0~0~0~0~0~0~0
aquaman-2~0~0~0~0~0~0~1~0~0~0~0~0~0~0~0~0~0~0
avatar-2~0~0~0~0~0~0~1~0~1~0~0~0~0~0~0~0~0~0
indiana-jones-5~0~0~0~0~0~0~0~1~0~0~0~0~0~0~0~0~0~0
chhapaak~0~0~0~0~0~0~0~1~0~0~0~0~0~0~0~0~0~0
rrr~0~0~0~0~0~0~0~1~0~0~0~0~0~0~0~0~0~0
sadak-2~0~0~0~0~0~0~0~1~0~0~0~0~0~0~0~0~0~0
phatte-dinde-chakk-punjabi~0~0~0~0~0~0~0~1~0~0~0~0~0~0~0~0~0~0
shamshera~0~0~0~0~0~0~1~1~0~0~0~0~0~0~0~0~0~0
laxmmi-bomb~0~0~0~0~0~0~0~1~0~0~0~0~0~0~0~0~0~0
puaada~0~0~0~0~0~0~0~1~0~0~0~0~0~0~0~0~0~0
coolie-no-1~0~0~0~0~0~0~0~1~0~0~0~0~0~0~0~0~0~0
fast-and-furious-9~0~0~0~0~0~0~1~0~0~0~0~0~0~1~0~0~0~0
hera-pheri-punjabi~0~0~0~0~0~0~0~1~0~0~0~0~0~0~0~0~0~0
83~0~0~0~0~0~0~0~0~0~0~0~0~0~0~1~0~0~0
rooh-afza~0~0~0~0~0~0~0~1~0~0~0~0~0~0~0~0~0~0
bhuj-the-pride-of-india~0~0~0~0~0~0~0~1~0~0~0~0~0~0~0~0~0~0
the-invisible-man~0~0~0~0~0~0~0~1~0~0~0~0~0~0~0~0~0~0
baaghi-3~0~0~0~0~0~0~1~1~0~0~0~0~0~0~0~0~0~0
gambit~0~0~0~0~0~0~0~1~0~0~0~0~0~0~0~0~0~0
chehre~0~0~0~0~0~0~0~1~0~0~0~0~0~0~0~0~0~0
street-dancer-3-3d~0~0~0~0~0~0~1~0~0~0~0~0~0~0~0~0~0~0
panga~0~0~0~0~0~0~0~1~0~0~0~0~0~0~0~0~0~0
bad-boys-for-life~0~0~0~0~0~0~1~0~0~0~0~0~0~1~0~0~0~0
taanaji-the-unsung-warrior~0~0~0~0~0~0~0~0~0~0~0~0~0~0~0~0~0~0
the-call-of-the-wild~0~0~0~0~0~0~0~1~0~0~0~0~0~0~0~0~0~0
the-disaster-artist~0~0~0~0~0~0~0~1~0~0~0~0~0~0~0~0~0~0
good-news~0~0~0~0~0~0~0~1~0~0~0~0~0~0~0~0~0~0
kosrakollikal~0~0~0~0~0~0~0~1~0~0~0~0~0~0~0~0~0~0
jumanji-3~0~0~0~0~0~0~1~0~1~0~0~1~0~0~0~0~0~0
yesu-kristu-rendava-rakada~0~0~0~0~0~0~0~1~0~0~0~0~0~0~0~0~0~0
oka-tupaki-moodu-pittalu~0~0~0~0~0~0~0~0~0~1~0~1~0~0~0~0~0~0
pati-patni-aur-woh~0~0~0~0~0~0~0~1~0~0~0~0~0~0~0~0~0~0
panipat~0~0~0~0~0~0~0~1~0~0~0~0~0~0~0~0~0~0
frozen-2~0~0~0~0~0~0~0~1~0~0~1~0~0~0~0~0~0~0
dil-bechara~0~0~0~0~0~0~0~1~0~0~0~0~0~0~0~0~0~0
terminator-dark-fate~0~0~0~0~0~0~0~0~0~0~0~0~0~0~0~0~0~0
pagalpanti~0~0~0~0~0~0~0~1~0~0~0~0~0~0~0~0~0~0
jinde-meriye~0~0~0~0~0~0~0~1~0~0~0~0~0~0~0~0~0~0
maleficent-mistress-of-evil~0~0~0~0~0~0~0~0~0~0~0~0~0~0~0~0~0~0
kaithi~0~0~0~0~0~0~0~1~0~0~0~0~0~0~0~0~0~0
pynngop~0~0~0~0~0~0~0~1~0~0~0~0~0~0~0~0~0~0
the-sky-is-pink~0~0~0~0~0~0~0~1~0~0~0~0~0~0~0~0~0~0
password-bengali~0~0~0~0~0~0~0~1~0~0~0~0~0~0~0~0~0~0
gemini-man~0~0~0~0~0~0~0~1~0~0~0~0~0~0~0~0~0~0
jungle-cruise~0~0~0~0~0~0~0~1~0~0~0~0~0~0~0~0~0~0
joker-english~0~0~0~0~0~0~0~0~0~0~0~0~0~1~0~0~0~0
marjaavaan~0~0~0~0~0~0~0~1~0~0~0~0~0~0~0~0~0~0
sye-raa-narasimha-reddy~0~0~0~0~0~0~1~1~0~0~0~0~0~0~0~0~0~0
the-woman-in-the-window~0~0~0~0~0~0~0~1~0~0~0~0~0~0~0~0~0~0
doorbeen~0~0~0~0~0~0~0~1~0~0~0~0~0~0~0~0~0~0
abominable~0~0~0~0~0~0~0~1~0~0~0~0~0~0~0~0~0~0
rambo~0~0~0~0~0~0~1~1~0~0~0~0~0~0~0~0~0~0
gaalib~0~0~0~0~0~0~0~1~0~0~0~0~0~0~0~0~0~0
nikka-zaildar-3~0~0~0~0~0~0~0~1~0~0~0~0~0~0~0~0~0~0
rambo-last-blood~0~0~0~0~0~0~0~0~0~0~0~0~0~0~0~0~0~0
downton-abbey~0~0~0~0~0~0~0~1~0~0~0~0~0~0~0~0~0~0
ad-astra~0~0~0~0~0~0~0~1~0~0~0~0~0~0~0~0~0~0
commando-3~0~0~0~0~0~0~0~1~0~0~0~0~0~0~0~0~0~0
the-zoya-factor~0~0~0~0~0~0~0~1~0~0~0~0~0~0~0~0~0~0
daaka~0~0~0~0~0~0~0~1~0~0~0~0~0~0~0~0~0~0
manaroopa~0~0~0~0~0~0~0~0~0~0~0~0~0~1~0~0~0~0
spies-in-disguise~0~0~0~0~0~0~1~0~1~0~1~0~0~0~0~0~0~0
the-goldfinch~0~0~0~0~0~0~0~1~0~0~0~0~0~0~0~0~0~0
dream-girl~0~0~0~0~0~0~0~1~0~0~0~0~0~0~0~0~0~0
laal-kaptaan~0~0~0~0~0~0~0~1~0~0~0~0~0~0~0~0~0~0
it-chapter-2~0~0~0~0~0~0~0~0~0~0~0~0~0~0~0~0~0~0
kaappaan~0~0~0~0~0~0~1~0~0~0~0~0~0~1~0~0~0~0
surkhi-bindi~0~0~0~0~0~0~0~1~0~0~0~0~0~0~0~0~0~0
chhichhore~0~0~0~0~0~0~0~1~0~0~0~0~0~0~0~0~0~0
naukar-vahuti-da~0~0~0~0~0~0~0~1~0~0~0~0~0~0~0~0~0~0
jaanbaaz~0~0~0~0~0~0~0~1~0~0~0~0~0~0~0~0~0~0
evaru~0~0~0~0~0~0~0~1~0~0~0~0~0~0~0~0~0~0
bayko-deta-ka-bayko~0~0~0~0~0~0~0~1~0~0~0~0~0~0~0~0~0~0
crawl~0~0~0~0~0~0~0~1~0~0~0~0~0~0~0~0~0~0
angry-bird-2~0~0~0~0~0~0~0~1~0~0~0~0~0~0~0~0~0~0
made-in-china-hindi~0~0~0~0~0~0~0~1~0~0~0~0~0~0~0~0~0~0
ye-re-ye-re-paisa-2~0~0~0~0~0~0~0~1~0~0~0~0~0~0~0~0~0~0
kurukshetra~0~0~0~0~0~0~0~1~0~0~0~0~0~0~0~0~0~0
saaho~0~0~0~0~0~0~0~1~0~0~0~0~0~0~0~0~0~0
batla-house~0~0~0~0~0~0~0~1~0~0~0~0~0~0~0~0~0~0
once-upon-a-time-in-hollywood~0~0~0~0~0~0~0~1~0~0~0~0~0~1~0~0~0~0
artemis-fowl~0~0~0~0~0~0~1~0~1~0~0~0~0~0~0~0~0~0
ranarangam~0~0~0~0~0~0~0~1~0~0~0~0~0~0~0~0~0~0
chase-no-mercy-to-crime~0~0~0~0~0~0~0~1~0~0~0~0~0~0~0~0~0~0
dora-and-the-lost-city-of-gold~0~0~0~0~0~0~0~1~0~0~0~0~0~0~0~0~0~0
the-new-mutants~0~0~0~0~0~0~0~1~0~0~0~0~0~0~0~0~0~0
jabariya-jodi~0~0~0~0~0~0~0~1~0~0~0~0~0~0~0~0~0~0
stuber~0~0~0~0~0~0~0~1~0~0~0~0~0~0~0~0~0~0
girlfriend-marathi~0~0~0~0~0~0~0~1~0~0~0~0~0~0~0~0~0~0
ardaas-karaan~0~0~0~0~0~0~0~1~0~0~0~0~0~0~0~0~0~0
hobbs-and-shaw~0~0~0~0~0~0~1~0~1~0~0~1~0~0~0~0~0~0
dear-comrade~0~0~0~0~0~0~1~1~0~0~0~0~0~0~0~0~0~0
pal-pal-dil-ke-paas~0~0~0~0~0~0~0~1~0~0~0~0~0~0~0~0~0~0
smile-please-marathi~0~0~0~0~0~0~0~1~0~0~0~0~0~0~0~0~0~0
the-lion-king~0~0~0~0~0~0~0~0~1~0~1~0~0~0~0~0~0~0
arjun-patiala~0~0~0~0~0~0~0~0~0~0~0~1~0~0~0~0~0~0
jaddi-sardar~0~0~0~0~0~0~0~1~0~0~0~0~0~0~0~0~0~0
ismart-shankar~0~0~0~0~0~0~1~0~0~0~0~0~0~0~0~0~0~0
rakshasudu~0~0~0~0~0~0~0~1~0~0~0~0~0~0~0~0~0~0
top-gun-maverick~0~0~0~0~0~0~0~0~0~0~0~0~0~0~0~0~0~0
super-30~0~0~0~0~0~0~0~1~0~0~0~0~0~0~1~0~0~0
jai-mummy-di~0~0~0~0~0~0~0~1~0~0~0~0~0~0~0~0~0~0
dorasani~0~0~0~0~0~0~0~1~0~0~0~0~0~0~0~0~0~0
oh-baby~0~0~0~0~0~0~0~1~0~0~0~0~0~0~0~0~0~0
satellite-shankar~0~0~0~0~0~0~0~1~0~0~0~0~0~0~0~0~0~0
spider-man-far-from-home~0~0~0~0~0~0~0~0~0~0~0~0~0~0~0~0~0~0
malaal~0~0~0~0~0~0~0~1~0~0~0~0~0~0~0~0~0~0
a-biopic-from-the-film-industry~0~0~0~0~0~0~0~1~0~0~0~0~0~0~0~0~0~0
latest imax-3d movies 2019~0~0~0~0~0~0~0~0~0~0~0~0~0~0~0~0~0~0
latest imax-2d movies 2019~0~0~0~0~0~0~0~0~0~0~0~0~0~0~0~0~0~0
latest 7d movies 2019~0~0~0~0~0~0~0~0~0~0~0~0~0~0~0~0~0~0
latest 4dx movies 2019~0~0~0~0~0~0~0~0~0~0~0~0~0~0~0~0~0~0
latest 3d movies 2019~0~0~0~0~0~0~0~0~0~0~0~0~0~0~0~0~0~0
latest 4dx-3d movies 2019~0~0~0~0~0~0~0~0~0~0~0~0~0~0~0~0~0~0
rameshan-oru-peralla~0~0~0~0~0~0~0~1~0~0~0~0~0~0~0~0~0~0
mindo-taseeldarni~0~0~0~0~0~0~0~1~0~0~0~0~0~0~0~0~0~0
luca~0~0~0~0~0~0~0~1~0~0~0~0~0~0~0~0~0~0
shibu~0~0~0~0~0~0~0~1~0~0~0~0~0~0~0~0~0~0
kushka~0~0~0~0~0~0~0~1~0~0~0~0~0~0~0~0~0~0
takatak~0~0~0~0~0~0~0~1~0~0~0~0~0~0~0~0~0~0
adham~0~0~0~0~0~0~0~1~0~0~0~0~0~0~0~0~0~0
miss-u-mister~0~0~0~0~0~0~0~1~0~0~0~0~0~0~0~0~0~0
hume-tumse-pyaar-kitna~0~0~0~0~0~0~0~1~0~0~0~0~0~0~0~0~0~0
article-15~0~0~0~0~0~0~0~1~0~0~0~0~0~1~0~0~0~0
drive~0~0~0~0~0~0~1~0~1~0~0~0~0~1~0~0~0~0
v-for-victor~0~0~0~0~0~0~0~1~0~0~0~0~0~0~0~0~0~0
annabelle-comes-home~0~0~0~0~0~0~0~1~0~0~0~0~0~0~0~0~0~0
bibaho-obhijaan~0~0~0~0~0~0~0~1~0~0~0~0~0~0~0~0~0~0
sagardwipey-jawker-dhan~0~0~0~0~0~0~0~0~1~0~0~0~0~0~0~0~0~0
sivaranjani~0~0~0~0~0~0~0~0~0~1~0~0~0~0~0~0~1~0
shadaa~0~0~0~0~0~0~0~1~0~1~0~1~0~0~0~0~0~0
bandishala~0~0~0~0~0~0~0~1~0~0~0~0~0~0~0~0~0~0
devaki~0~0~0~0~0~0~0~1~0~0~0~0~0~0~0~0~0~0
mallesham~0~0~0~0~0~0~0~1~0~0~0~0~0~0~0~0~0~0
sindhubaadh~0~0~0~0~0~0~0~1~0~0~0~0~0~0~0~0~0~0
pakkiri~0~0~0~0~0~0~0~1~0~0~0~0~0~0~0~0~0~0
kabir-singh~0~0~0~0~0~0~1~1~0~1~0~0~0~0~0~0~0~0
the-extraordinary-journey-of-the-fakir~0~0~0~0~0~0~0~1~0~0~0~0~0~0~0~0~0~0
fastey-fasaatey~0~0~0~0~0~0~0~1~0~0~0~0~0~0~0~0~0~0
mental-hai-kya~0~0~0~0~0~0~0~0~0~0~0~1~0~1~0~0~0~0
jind-jaan~0~0~0~0~0~0~0~1~0~0~0~0~0~0~0~0~0~0
munda-faridkotia~0~0~0~0~0~0~0~1~0~0~0~0~0~0~0~0~0~0
toy-story-4~0~0~0~0~0~0~0~0~1~0~1~1~0~0~0~0~0~0
miracle~0~0~0~0~0~0~0~1~0~0~0~0~0~0~0~0~0~0
ikkayude-shakadam~0~0~0~0~0~0~0~1~0~0~0~0~0~0~0~0~0~0
hangover-kannada~0~0~0~0~0~0~0~1~0~0~0~0~0~1~0~0~0~0
kakshi-amminippilla~0~0~0~0~0~0~0~1~0~0~0~0~0~0~0~0~0~0
i-love-you-nanne-preethse~0~0~0~0~0~0~0~1~0~0~0~0~0~0~0~0~0~0
mogra-phulaalaa~0~0~0~0~0~0~0~1~0~0~0~0~0~0~0~0~0~0
welcome-home~0~0~0~0~0~0~0~1~0~0~0~0~0~0~0~0~0~0
ek~0~0~0~0~0~0~0~1~0~0~0~0~0~0~0~0~0~0
viswamitra~0~0~0~0~0~0~0~1~0~0~0~0~0~0~0~0~0~0
brochevarevaru-ra~0~0~0~0~0~0~0~1~0~0~0~0~0~0~0~0~0~0
special-the-story-of-a-mind-reader~0~0~0~0~0~0~0~1~0~0~0~0~0~0~0~0~0~0
nenjamundu-nermaiyundu-odu-raja~0~0~0~0~0~0~0~1~0~0~0~0~0~0~0~0~0~0
game-over-tamil~0~0~0~0~0~0~0~1~0~0~0~0~0~0~0~0~0~0
suttu-pidikka-utharavu~0~0~0~0~0~0~1~1~0~0~0~0~0~0~0~0~0~0
kolayuthir-kaalam~0~0~0~0~0~0~0~1~0~0~0~0~0~0~0~0~0~0
king-kong-ki-duniya~0~0~0~0~0~0~0~1~0~0~0~0~0~0~0~0~0~0
icc-cricket-world-cup-2019-india-vs-south-africa-live-screening~0~0~0~0~0~0~1~0~0~0~0~0~0~0~0~0~0~0
laiye-je-yaarian~0~0~0~0~0~0~0~1~0~1~0~0~0~0~0~0~0~0
x-men-dark-phoenix-3d~0~0~0~0~0~0~0~0~0~0~0~0~0~0~0~0~0~0
x-men-dark-phoenix-3d-hindi~0~0~0~0~0~0~0~0~0~0~0~0~0~0~0~0~0~0
men-in-black-international~0~0~0~0~0~0~0~0~0~0~0~0~0~0~0~0~0~0
kissebaaz~0~0~0~0~0~0~0~1~0~0~0~0~0~0~0~0~0~0
the-secret-life-of-pets-2~0~0~0~0~0~0~0~1~0~0~0~0~0~0~0~0~0~0
rescue~0~0~0~0~0~0~0~1~0~0~0~0~0~0~0~0~0~0
khamoshi~0~0~0~0~0~0~0~1~0~0~0~0~0~0~0~0~0~0
feluda~0~0~0~0~0~0~0~1~0~0~0~0~0~0~0~0~0~0
virus~0~0~0~0~0~0~0~1~0~0~0~0~0~1~0~0~0~0
one-day-hindi~0~0~0~0~0~0~0~1~0~0~0~0~0~0~0~0~0~0
mask-malayalam~0~0~0~0~0~0~0~0~0~0~0~1~0~1~0~0~0~0
my-great-grandfather~0~0~0~0~0~0~0~1~0~0~0~1~0~0~0~0~0~0
majjige-huli~0~0~0~0~0~0~0~1~0~0~0~0~0~0~0~0~0~0
vijayadwaja~0~0~0~0~0~0~0~1~0~0~0~0~0~0~0~0~0~0
killer-telugu~0~0~0~0~0~0~1~1~0~0~0~0~0~1~0~0~0~0
coolie-no-1-bhojpuri~0~0~0~0~0~0~0~1~0~0~0~0~0~0~0~0~0~0
unda~0~0~0~0~0~0~1~0~0~0~0~1~0~1~0~0~0~0
suvarna-sundari-telugu~0~0~0~0~0~0~0~1~0~0~0~0~0~1~0~0~1~0
hippi~0~0~0~0~0~0~0~0~0~1~0~1~0~0~0~0~0~0
ek-andar-do-bahar~0~0~0~0~0~0~0~1~0~0~0~0~0~0~0~0~0~0
shesh-theke-shuru~0~0~0~0~0~0~0~1~0~0~0~0~0~1~0~0~0~0
kidnap~0~0~0~0~0~0~1~0~0~0~0~0~0~1~0~0~0~0
dastaan-e-miri-piri~0~0~0~0~0~0~0~1~0~0~1~0~0~0~0~0~0~0
thamaasha~0~0~0~0~0~0~0~1~0~1~0~0~0~0~0~0~0~0
childrens-park~0~0~0~0~0~0~0~1~0~1~0~1~0~0~0~0~0~0
kolaigaran~0~0~0~0~0~0~1~1~0~0~0~0~0~1~0~0~0~0
thottappan~0~0~0~0~0~0~0~1~0~0~0~0~0~0~0~0~0~0
x-men-dark-phoenix-hindi~0~0~0~0~0~0~0~0~0~0~0~0~0~0~0~0~0~0
wild-roller-coaster-combo-7d~0~0~0~0~0~0~0~0~1~0~0~0~0~0~0~0~0~0
hansa-ek-sanyog~0~0~0~0~0~0~0~1~0~0~0~0~0~0~0~0~0~0
dinosaur-adventure-combo-7d~0~0~0~0~0~0~0~0~1~0~0~0~0~0~0~0~0~0
inspector-vijay~0~0~0~0~0~0~1~1~0~1~0~0~0~0~0~0~0~0
air-strike~0~0~0~0~0~0~1~1~1~0~0~0~0~0~0~0~0~0
nakkash~0~0~0~0~0~0~0~1~0~0~0~0~0~0~0~0~0~0
naughty-gang~0~0~0~0~0~0~0~0~0~0~0~1~0~0~0~0~0~0
on-the-ramp-never-ending-show~0~0~0~0~0~0~0~1~0~0~0~0~0~0~0~0~0~0
shuruaat-ka-twist~0~0~0~0~0~0~0~1~0~0~0~0~0~0~0~0~0~0
the-house-of-dead-horror-combo-7d~0~0~0~0~0~0~0~0~1~0~0~0~0~0~0~0~1~0
seven~0~0~0~0~0~0~0~0~0~1~0~0~0~1~0~0~0~0
long-shot~0~0~0~0~0~0~0~0~0~1~0~1~0~0~0~0~0~0
durgeshgorer-guptodhon~0~0~0~0~0~0~0~1~0~0~0~0~0~1~0~0~0~1
can-you-ever-forgive-me~0~0~0~0~0~0~0~1~0~0~0~1~0~0~1~0~0~0
devi-2~0~0~0~0~0~0~0~0~0~0~0~1~0~0~0~0~1~0
grihalakshmi-the-awakening~0~0~0~0~0~0~0~1~0~0~0~0~0~0~0~0~0~0
the-son-of-big-foot~0~0~0~0~0~0~0~0~1~0~1~1~0~0~0~0~0~0
the-hustle~0~0~0~0~0~0~0~0~0~0~0~1~0~0~0~0~0~0
brightburn~0~0~0~0~0~0~0~1~0~0~0~0~0~0~0~0~1~0
a-dogs-journey~0~0~0~0~0~0~0~1~1~0~0~1~0~0~0~0~0~0
the-tashkent-files~0~0~0~0~0~0~0~1~0~0~0~0~1~1~0~0~0~0
pokemon-detective-pikachu~0~0~0~0~0~0~0~0~1~0~0~1~0~0~0~0~0~0
rocketman~0~0~0~0~0~0~0~1~0~0~0~0~1~0~1~0~0~0
avengers-endgame~0~0~0~0~0~0~0~0~0~0~0~0~0~0~0~0~0~0
chandigarh-amritsar-chandigarh~0~0~0~0~0~0~0~1~0~1~0~1~0~0~0~0~0~0
indias-most-wanted~0~0~0~0~0~0~1~0~0~0~0~0~0~1~0~0~0~0
muklawa~0~0~0~0~0~0~0~1~0~1~0~0~0~0~0~0~0~0
aladdin~0~0~0~0~0~0~1~1~1~0~0~0~1~0~0~0~0~0
list of upcoming bollywood & hollywood movies releasing in noida - bookmyshow~0~0~0~0~0~0~0~0~0~0~0~0~0~0~0~0~0~0
latest bollywood & new hollywood movies showtimes in noida theaters - bookmyshow.~0~0~0~0~0~0~0~0~0~0~0~0~0~0~0~0~0~0
best bollywood horror movies of all time to give you the real chills! - entertainment news~0~0~0~0~0~0~0~0~0~0~0~0~0~0~0~0~0~0
bollywood~0~0~0~0~0~0~0~0~0~0~0~0~0~0~0~0~0~0
movie trailers & previews of upcoming bollywood & hollywood - bookmyshow entertainment news~0~0~0~0~0~0~0~0~0~0~0~0~0~0~0~0~0~0
new fantasy movies releases 2019~0~0~0~0~0~0~0~0~0~0~0~0~0~0~0~0~0~0
new adventure movies releases 2019~0~0~0~0~0~0~0~0~0~0~0~0~0~0~0~0~0~0
new action movies releases 2019~0~0~0~0~0~0~0~0~0~0~0~0~0~0~0~0~0~0
new drama movies releases 2019~0~0~0~0~0~0~0~0~0~0~0~0~0~0~0~0~0~0
hollywood~0~0~0~0~0~0~0~0~0~0~0~0~0~0~0~0~0~0
hollywood movie news, hollywood movie celebs , english movie releases & celebrity gossips - bookmyshow entertainment news~0~0~0~0~0~0~1~0~0~0~0~1~0~0~0~0~0~0
current bollywood movie news, latest celebrity gossips & updates - bookmyshow entertainment news~0~0~0~0~0~0~1~0~0~0~0~1~0~0~0~0~0~0
kallje-korani-mari-sajna~0~0~0~0~0~0~0~1~0~0~0~0~0~0~0~0~0~0
chhota-bheem-kung-fu-dhamaka~0~0~0~0~0~0~0~0~0~0~0~0~0~0~0~0~0~0
bau-na-vichaar~0~0~0~0~0~0~0~1~0~0~0~1~0~0~0~0~0~0
chaal-jeevi-laiye~0~0~0~0~0~0~0~1~0~0~0~1~0~0~0~0~0~0
latest bollywood & new hollywood movies showtimes in ahmedabad theaters - bookmyshow.~0~0~0~0~0~0~0~0~0~0~0~0~0~0~0~0~0~0
list of upcoming bollywood & hollywood movies releasing in ahmedabad - bookmyshow~0~0~0~0~0~0~0~0~0~0~0~0~0~0~0~0~0~0
marathi~0~0~0~0~0~0~0~0~0~0~0~0~0~0~0~0~0~0
hindi~0~0~0~0~0~0~0~0~0~0~0~0~0~0~0~0~0~0
latest mx4d movies 2019~0~0~0~0~0~0~0~0~0~0~0~0~0~0~0~0~0~0
chaturnath~0~0~0~0~0~0~0~1~0~0~0~1~0~0~0~0~0~0
nirahua-chalal-london~0~0~0~0~0~0~1~1~0~1~0~0~0~0~0~0~0~0
the-least-of-these~0~0~0~0~0~0~0~1~0~0~0~0~0~0~0~0~0~0
savdhan-ek-adbhut-kahaani~0~0~0~0~0~0~0~0~0~0~0~0~0~1~0~0~1~0
adventure-show-and-horror-show~0~0~0~0~0~0~0~0~1~0~0~0~0~0~0~0~1~0
horror-show~0~0~0~0~0~0~0~0~0~0~0~0~0~0~0~0~1~0
x-men-dark-phoenix-3d-tamil~0~0~0~0~0~0~0~0~0~0~0~0~0~0~0~0~0~0
sons-of-ram-3d~0~0~0~0~0~0~0~0~1~0~0~0~0~0~0~0~0~0
galactic-bumper-car-kids-scary~0~0~0~0~0~0~1~0~1~0~0~0~0~0~0~0~0~0
galactic-bumper-car-scary~0~0~0~0~0~0~1~0~0~0~0~0~0~0~0~0~0~0
koytaa-ek-sangharsh~0~0~0~0~0~0~1~1~0~0~0~0~0~0~0~0~0~0
me-and-mr-canadian~0~0~0~0~0~0~0~0~0~1~0~1~0~0~0~0~0~0
rampaat~0~0~0~0~0~0~0~1~0~0~0~0~0~0~0~0~0~0
dilwale-dulhania-le-jayenge~0~0~0~0~0~0~0~1~0~1~0~1~0~0~0~0~0~0
babo~0~0~0~0~0~0~0~1~0~0~0~1~0~0~0~0~0~0
phir-ussi-mod-par-talaq~0~0~0~0~0~0~0~1~0~0~0~0~0~0~0~0~0~0
december-31~0~0~0~0~0~0~0~1~0~0~0~0~0~0~0~0~0~0
x-men-dark-phoenix-3d-telugu~0~0~0~0~0~0~0~0~0~0~0~0~0~0~0~0~0~0
the-curse-of-the-weeping-woman~0~0~0~0~0~0~0~0~0~0~0~0~1~1~0~0~1~0
abcd-american-born-confused-desi~0~0~0~0~0~0~0~0~0~0~0~0~0~0~0~0~0~0
thiruttukkalyanam~0~0~0~0~0~0~0~1~0~1~0~0~0~0~0~0~0~0
swapnarajyam~0~0~0~0~0~0~0~1~0~0~0~1~0~0~0~0~0~0
k-13~0~0~0~0~0~0~1~1~0~0~0~0~0~1~0~0~0~0
kee~0~0~0~0~0~0~0~0~0~0~0~0~0~1~0~0~0~0
lisaa-3d~0~0~0~0~0~0~0~0~0~0~0~0~0~1~0~0~1~0
natpuna-ennanu-theriyuma~0~0~0~0~0~0~0~1~0~0~0~0~0~0~0~0~0~0
ayogya-tamil~0~0~0~0~0~0~1~1~0~0~0~0~0~1~0~0~0~0
uyare~0~0~0~0~0~0~0~1~0~1~0~0~0~0~0~0~0~0
mr-local~0~0~0~0~0~0~1~0~0~0~0~1~0~0~0~0~0~0
galactic-bumper-car-horror~0~0~0~0~0~0~1~0~1~0~0~0~0~0~0~0~0~0
ride-show-and-adventure-show~0~0~0~0~0~0~0~0~1~0~0~0~0~0~0~0~0~0
galactic-bumper-cars-adventure-show~0~0~0~0~0~0~0~0~0~0~1~0~0~0~0~0~0~0
bhoot-chaturdashi~0~0~0~0~0~0~0~0~0~0~0~0~0~1~0~0~1~0
tarikh~0~0~0~0~0~0~0~1~0~0~0~0~0~0~0~0~0~0
deva-ek-rakshak~0~0~0~0~0~0~0~1~0~0~0~0~0~0~0~0~0~0
blackia~0~0~0~0~0~0~0~1~0~0~0~0~0~0~0~0~0~0
paharganj~0~0~0~0~0~0~0~1~0~0~0~0~1~1~0~0~0~0
wrong-number~0~0~0~0~0~0~0~1~0~0~0~0~1~0~0~0~0~0
googly~0~0~0~0~0~0~0~1~0~0~0~1~0~0~0~0~0~0
sakhhii~0~0~0~0~0~0~0~1~0~0~0~0~0~0~0~0~0~0
seetha~0~0~0~0~0~0~0~1~0~1~0~0~0~0~0~0~0~0
list of upcoming bollywood & hollywood movies releasing in mumbai - bookmyshow~0~0~0~0~0~0~0~0~0~0~0~0~0~0~0~0~0~0
latest bollywood & new hollywood movies showtimes in mumbai theaters - bookmyshow.~0~0~0~0~0~0~0~0~0~0~0~0~0~0~0~0~0~0
abhinetri-2~0~0~0~0~0~0~0~0~0~0~0~0~0~0~0~0~1~0
list of upcoming bollywood & hollywood movies releasing in hyderabad - bookmyshow~0~0~0~0~0~0~0~0~0~0~0~0~0~0~0~0~0~0
latest bollywood & new hollywood movies showtimes in hyderabad theaters - bookmyshow.~0~0~0~0~0~0~0~0~0~0~0~0~0~0~0~0~0~0
100~0~0~0~0~0~0~1~0~0~0~0~0~0~1~0~0~0~0
monster~0~0~0~0~0~0~0~1~0~0~0~1~0~0~0~0~0~0
latest bollywood & new hollywood movies showtimes in chennai theaters - bookmyshow.~0~0~0~0~0~0~0~0~0~0~0~0~0~0~0~0~0~0
list of upcoming bollywood & hollywood movies releasing in chennai - bookmyshow~0~0~0~0~0~0~0~0~0~0~0~0~0~0~0~0~0~0
vinci-da~0~0~0~0~0~0~0~0~0~0~0~0~1~1~0~0~0~0
jyeshthoputro~0~0~0~0~0~0~0~1~0~0~0~0~0~0~0~0~0~0
atithi-bengali~0~0~0~0~0~0~0~1~0~0~0~0~0~0~0~0~0~0
konttho~0~0~0~0~0~0~0~1~0~1~0~0~0~0~0~0~0~0
list of upcoming bollywood & hollywood movies releasing in kolkata - bookmyshow~0~0~0~0~0~0~0~0~0~0~0~0~0~0~0~0~0~0
latest bollywood & new hollywood movies showtimes in kolkata theaters - bookmyshow.~0~0~0~0~0~0~0~0~0~0~0~0~0~0~0~0~0~0
66-sadashiv~0~0~0~0~0~0~0~1~0~0~0~1~0~0~0~0~0~0
latest bollywood & new hollywood movies showtimes in pune theaters - bookmyshow.~0~0~0~0~0~0~0~0~0~0~0~0~0~0~0~0~0~0
list of upcoming bollywood & hollywood movies releasing in pune - bookmyshow~0~0~0~0~0~0~0~0~0~0~0~0~0~0~0~0~0~0
english~0~0~0~0~0~0~0~0~0~0~0~0~0~0~0~0~0~0
latest bollywood & new hollywood movies showtimes in delhi theaters - bookmyshow.~0~0~0~0~0~0~0~0~0~0~0~0~0~0~0~0~0~0
list of upcoming bollywood & hollywood movies releasing in delhi - bookmyshow~0~0~0~0~0~0~0~0~0~0~0~0~0~0~0~0~0~0
gujarati~0~0~0~0~0~0~0~0~0~0~0~0~0~0~0~0~0~0
tamil~0~0~0~0~0~0~0~0~0~0~0~0~0~0~0~0~0~0
telugu~0~0~0~0~0~0~0~0~0~0~0~0~0~0~0~0~0~0
kgf~0~0~0~0~0~0~1~0~0~1~0~0~0~0~0~0~0~0
avengers-endgame-3d~0~0~0~0~0~0~1~0~1~0~0~0~0~0~0~0~0~0
student-of-the-year~0~0~0~0~0~0~0~1~0~1~0~1~0~0~0~0~0~0
weekend~0~0~0~0~0~0~0~1~0~0~0~0~0~0~0~0~0~0
forest-adventure-wild-coaster-7d~0~0~0~0~0~0~0~0~1~0~0~0~0~0~0~0~0~0
khanana~0~0~0~0~0~0~0~0~0~0~0~0~0~1~0~0~0~0
escape-from-hell-house-of-dead-7d~0~0~0~0~0~0~0~1~0~0~0~0~0~0~0~0~0~0
kavaludaari~0~0~0~0~0~0~0~0~0~0~0~0~0~1~0~0~0~0
yajamana~0~0~0~0~0~0~1~1~0~0~0~0~0~0~0~0~0~0
omme-nishyabda-omme-yudda~0~0~0~0~0~0~0~1~0~1~0~0~0~0~0~0~0~0
suvarna-sundari-kannada~0~0~0~0~0~0~0~1~0~0~0~0~0~1~0~0~1~0
do-parvathamma~0~0~0~0~0~0~1~0~0~0~0~0~0~1~0~0~0~0
ishq-malayalam~0~0~0~0~0~0~0~1~0~1~0~0~1~0~0~0~0~0
premier-padmini~0~0~0~0~0~0~0~1~0~0~0~0~0~0~0~0~0~0
bell-bottom~0~0~0~0~0~0~0~1~0~0~0~0~0~1~0~0~0~0
kamarottu-checkpost~0~0~0~0~0~0~0~0~0~0~0~0~0~1~0~0~1~0
list of upcoming bollywood & hollywood movies releasing in bengaluru - bookmyshow~0~0~0~0~0~0~0~0~0~0~0~0~0~0~0~0~0~0
latest bollywood & new hollywood movies showtimes in bengaluru theaters - bookmyshow.~0~0~0~0~0~0~0~0~0~0~0~0~0~0~0~0~0~0
movie tickets online booking & showtimes near you - bookmyshow~0~0~0~0~0~0~0~0~0~0~0~0~0~0~0~0~0~0
gift my show. online movie & concerts tickets gift vouchers & cards~0~0~0~0~0~0~0~0~0~0~0~0~0~0~0~0~0~0
aladdin-3d~0~0~0~0~0~0~1~1~1~0~0~0~1~0~0~0~0~0
kaagar~0~0~0~0~0~0~0~1~0~0~0~0~0~1~0~0~0~0
latest marathi movies 2019~0~0~0~0~0~0~0~0~0~0~0~0~0~0~0~0~0~0
movies#home#hamburgerlogo_googleg_48dplogo_googleg_48dpconfirming seats illustration~0~0~0~0~0~0~0~0~0~0~0~0~0~0~0~0~0~0
judwaa 2 first look unveiled~0~0~0~0~0~0~0~0~0~0~0~0~0~0~0~0~0~0
x-men~0~0~0~0~0~0~0~0~0~0~0~0~0~0~0~0~0~0
x-men-days-of-future-past-2d~0~0~0~0~0~0~0~0~0~0~0~0~0~0~0~0~0~0
abhinetri~0~0~0~0~0~0~0~0~0~0~0~1~0~0~0~0~1~0
moviesbookmyshowlogo_googleg_48dplogo_googleg_48dpconfirming seats illustration~0~0~0~0~0~0~0~0~0~0~0~0~0~0~0~0~0~0
new thriller movies releases 2019~0~0~0~0~0~0~0~0~0~0~0~0~0~0~0~0~0~0
new horror movies releases 2019~0~0~0~0~0~0~0~0~0~0~0~0~0~0~0~0~0~0
new romantic movies releases 2019~0~0~0~0~0~0~0~0~0~0~0~0~0~0~0~0~0~0
jersey~0~0~0~0~0~0~0~1~0~0~0~0~0~0~0~0~0~0
